(module BS_SMD_Packages:BS_NICHICON_6.3x5.3 (layer F.Cu)
  (descr "SMT capacitor, aluminium electrolytic, 6.3x5.3")
  (fp_text reference BS_NICHICON_6.3x5.3 (at 0 -4.2) (layer F.SilkS)
    (effects (font (size 1 1) (thickness 0.1778)))
  )
  (fp_text value C*** (at 0 4.2) (layer F.SilkS) hide
    (effects (font (size 1 1) (thickness 0.1778)))
  )
  (fp_line (start -2.9 1.15) (end -2.1 1.15) (layer F.SilkS) (width 0.2))
  (fp_line (start -2.1 1.15) (end -2.1 2.25) (layer F.SilkS) (width 0.2))
  (fp_line (start -2.1 2.25) (end -2.75 1.25) (layer F.SilkS) (width 0.2))
  (fp_line (start -2.75 1.25) (end -2.2 1.25) (layer F.SilkS) (width 0.2))
  (fp_line (start -2.2 1.25) (end -2.2 1.9) (layer F.SilkS) (width 0.2))
  (fp_line (start -2.2 1.9) (end -2.55 1.35) (layer F.SilkS) (width 0.2))
  (fp_line (start -2.55 1.35) (end -2.3 1.35) (layer F.SilkS) (width 0.2))
  (fp_line (start -2.3 1.35) (end -2.35 1.55) (layer F.SilkS) (width 0.2))
  (fp_line (start -2.9 -1.15) (end -2.1 -1.15) (layer F.SilkS) (width 0.2))
  (fp_line (start -2.1 -1.15) (end -2.1 -2.25) (layer F.SilkS) (width 0.2))
  (fp_line (start -2.1 -2.25) (end -2.75 -1.25) (layer F.SilkS) (width 0.2))
  (fp_line (start -2.75 -1.25) (end -2.2 -1.25) (layer F.SilkS) (width 0.2))
  (fp_line (start -2.2 -1.25) (end -2.2 -1.9) (layer F.SilkS) (width 0.2))
  (fp_line (start -2.2 -1.9) (end -2.55 -1.35) (layer F.SilkS) (width 0.2))
  (fp_line (start -2.55 -1.35) (end -2.3 -1.35) (layer F.SilkS) (width 0.2))
  (fp_line (start -2.3 -1.35) (end -2.35 -1.5) (layer F.SilkS) (width 0.2))
  (fp_arc (start 0 0) (end -2.9 -1.15) (angle 135.9) (layer F.SilkS) (width 0.2))
  (fp_arc (start 0 0) (end 2.9 1.15) (angle 135.9) (layer F.SilkS) (width 0.2))
  (fp_line (start -3.4 -3.4) (end -3.4 -1.15) (layer F.SilkS) (width 0.2))
  (fp_line (start 3.4 -2) (end 3.4 -1.15) (layer F.SilkS) (width 0.2))
  (fp_line (start -3.4 -3.4) (end 2 -3.4) (layer F.SilkS) (width 0.2))
  (fp_line (start 2 -3.4) (end 3.4 -2) (layer F.SilkS) (width 0.2))
  (fp_line (start 3.4 1.15) (end 3.4 2) (layer F.SilkS) (width 0.2))
  (fp_line (start 3.4 2) (end 2 3.4) (layer F.SilkS) (width 0.2))
  (fp_line (start 2 3.4) (end -3.4 3.4) (layer F.SilkS) (width 0.2))
  (fp_line (start -3.4 3.4) (end -3.4 1.15) (layer F.SilkS) (width 0.2))
  (fp_line (start 0.95 -1.7) (end 1.75 -1.7) (layer F.SilkS) (width 0.2))
  (fp_line (start 1.35 -1.3) (end 1.35 -2.1) (layer F.SilkS) (width 0.2))
  (pad 1 smd rect (at 2.4 0) (size 3.36 1.56) (layers F.Cu F.Paste F.Mask))
  (pad 2 smd rect (at -2.4 0) (size 3.36 1.56) (layers F.Cu F.Paste F.Mask))
  (model smd/Capacitors/c_elec_6_3x5_3.wrl
    (at (xyz 0 0 0))
    (scale (xyz 1 1 1))
    (rotate (xyz 0 0 0))
  )
)
