(module BS_SOD-123 (layer F.Cu)
  (fp_text reference BS_SOD-123 (at 0 -1.85) (layer F.SilkS)
    (effects (font (size 1 1) (thickness 0.1778)))
  )
  (fp_text value VAL** (at 0 1.85) (layer F.SilkS)
    (effects (font (size 1 1) (thickness 0.1778)))
  )
  (fp_line (start 0.7 -0.95) (end 0.7 0.95) (layer F.SilkS) (width 0.4))
  (fp_line (start -1.4 0.95) (end -1.4 1.05) (layer F.SilkS) (width 0.2))
  (fp_line (start -1.4 1.05) (end 1.4 1.05) (layer F.SilkS) (width 0.2))
  (fp_line (start 1.4 1.05) (end 1.4 0.95) (layer F.SilkS) (width 0.2))
  (fp_line (start 1.4 -0.95) (end 1.4 -1.05) (layer F.SilkS) (width 0.2))
  (fp_line (start 1.4 -1.05) (end -1.4 -1.05) (layer F.SilkS) (width 0.2))
  (fp_line (start -1.4 -1.05) (end -1.4 -0.95) (layer F.SilkS) (width 0.2))
  (pad 1 smd rect (at -1.6375 0) (size 1 1.3) (layers F.Cu F.Paste F.Mask))
  (pad 2 smd rect (at 1.6375 0) (size 1 1.3) (layers F.Cu F.Paste F.Mask))
  (model smd/do214.wrl
    (at (xyz 0 0 0))
    (scale (xyz 0.7 0.45 0.4))
    (rotate (xyz 0 0 0))
  )
)
