(module BS_SMS_Packages:BS_SOT23-3 (layer F.Cu)
  (tags SOT23)
  (fp_text reference BS_SOT23-3 (at 0 -2.5 180) (layer F.SilkS)
    (effects (font (size 1 1) (thickness 0.1778)))
  )
  (fp_text value Val** (at 0 2.55) (layer F.SilkS)
    (effects (font (size 1 1) (thickness 0.1778)))
  )
  (fp_line (start -0.5 0) (end 0.5 0) (layer F.Adhes) (width 0.7))
  (fp_line (start -1.7 0.8) (end -1.85 0.8) (layer F.SilkS) (width 0.2))
  (fp_line (start -1.85 0.8) (end -1.85 -0.8) (layer F.SilkS) (width 0.2))
  (fp_line (start -1.85 -0.8) (end -0.75 -0.8) (layer F.SilkS) (width 0.2))
  (fp_line (start 0.2 0.8) (end -0.2 0.8) (layer F.SilkS) (width 0.2))
  (fp_line (start 1.7 0.8) (end 1.85 0.8) (layer F.SilkS) (width 0.2))
  (fp_line (start 1.85 0.8) (end 1.85 -0.8) (layer F.SilkS) (width 0.2))
  (fp_line (start 0.75 -0.8) (end 1.85 -0.8) (layer F.SilkS) (width 0.2))
  (pad 1 smd rect (at -0.9525 1.1) (size 0.85 1) (layers F.Cu F.Paste F.Mask))
  (pad 2 smd rect (at 0.9525 1.1) (size 0.85 1) (layers F.Cu F.Paste F.Mask))
  (pad 3 smd rect (at 0 -1.1) (size 0.85 1) (layers F.Cu F.Paste F.Mask))
  (model smd/SOT23_3.wrl
    (at (xyz 0 0 0))
    (scale (xyz 0.4 0.4 0.4))
    (rotate (xyz 0 0 180))
  )
)
