(module LOGO (layer F.Cu)
  (fp_text reference G*** (at 0 -4) (layer F.SilkS) hide
    (effects (font (size 1 1) (thickness 0.2)))
  )
  (fp_text value LOGO (at 0 4) (layer F.SilkS) hide
    (effects (font (size 1 1) (thickness 0.2)))
  )
  (fp_poly (pts (xy 11.923693 -1.44687) (xy 11.905257 -1.321897) (xy 11.806369 -1.256212) (xy 11.778252 -1.247975)
    (xy 11.664463 -1.258196) (xy 11.555336 -1.373411) (xy 11.425113 -1.6191) (xy 11.231721 -2.032)
    (xy 1.685909 -2.032) (xy -7.859903 -2.032) (xy -8.763 0.677334) (xy -9.01365 1.425375)
    (xy -9.218635 2.026865) (xy -9.38374 2.496583) (xy -9.514747 2.849306) (xy -9.617442 3.099812)
    (xy -9.697607 3.262879) (xy -9.761026 3.353285) (xy -9.813484 3.385807) (xy -9.823386 3.386667)
    (xy -9.973469 3.356828) (xy -10.016587 3.323167) (xy -10.05234 3.227823) (xy -10.133047 2.995017)
    (xy -10.250791 2.648154) (xy -10.397656 2.210641) (xy -10.565728 1.705882) (xy -10.668 1.397)
    (xy -10.844607 0.864404) (xy -11.004508 0.38573) (xy -11.139788 -0.015622) (xy -11.242536 -0.31625)
    (xy -11.304838 -0.492754) (xy -11.319222 -0.528856) (xy -11.409558 -0.538099) (xy -11.58078 -0.475103)
    (xy -11.595884 -0.46745) (xy -11.766732 -0.391033) (xy -11.849352 -0.404406) (xy -11.887412 -0.474686)
    (xy -11.932292 -0.625209) (xy -11.938 -0.66869) (xy -11.868868 -0.732507) (xy -11.69374 -0.836587)
    (xy -11.461018 -0.957297) (xy -11.219104 -1.071007) (xy -11.016402 -1.154086) (xy -10.901313 -1.182901)
    (xy -10.892231 -1.179263) (xy -10.8572 -1.091388) (xy -10.777983 -0.867406) (xy -10.663071 -0.532138)
    (xy -10.520957 -0.110408) (xy -10.360131 0.372961) (xy -10.329498 0.465667) (xy -10.164992 0.961156)
    (xy -10.016523 1.402896) (xy -9.892883 1.76516) (xy -9.802869 2.02222) (xy -9.755274 2.148348)
    (xy -9.752091 2.15482) (xy -9.714769 2.098711) (xy -9.63191 1.900763) (xy -9.510517 1.580114)
    (xy -9.357596 1.155901) (xy -9.18015 0.647262) (xy -8.985182 0.073334) (xy -8.930943 -0.088846)
    (xy -8.156209 -2.413) (xy 1.661419 -2.434517) (xy 11.479047 -2.456035) (xy 11.708523 -1.988142)
    (xy 11.859006 -1.659496) (xy 11.923693 -1.44687) (xy 11.923693 -1.44687)) (layer F.SilkS) (width 0.1))
  (fp_poly (pts (xy -1.947334 -1.185333) (xy -1.949193 0.1905) (xy -1.958536 0.844268) (xy -1.9887 1.351247)
    (xy -2.045863 1.733349) (xy -2.136206 2.012485) (xy -2.265908 2.210565) (xy -2.441148 2.349501)
    (xy -2.576902 2.416187) (xy -2.893128 2.49598) (xy -3.298712 2.526549) (xy -3.719927 2.50425)
    (xy -3.8735 2.480248) (xy -4.009392 2.416817) (xy -4.060283 2.263863) (xy -4.064 2.163015)
    (xy -4.064 1.882473) (xy -3.704167 2.006539) (xy -3.300751 2.082341) (xy -2.954639 2.02319)
    (xy -2.691626 1.837275) (xy -2.575772 1.648355) (xy -2.476452 1.373708) (xy -2.46674 1.240502)
    (xy -2.477666 1.241763) (xy -2.477666 0.1693) (xy -2.515746 -0.165062) (xy -2.629159 -0.46907)
    (xy -2.811674 -0.704591) (xy -3.057064 -0.833491) (xy -3.175 -0.846666) (xy -3.442139 -0.772484)
    (xy -3.65065 -0.57552) (xy -3.793887 -0.294149) (xy -3.865206 0.033253) (xy -3.857962 0.368311)
    (xy -3.76551 0.67265) (xy -3.581205 0.907894) (xy -3.48943 0.969182) (xy -3.28567 1.068625)
    (xy -3.138516 1.08384) (xy -2.960676 1.015398) (xy -2.877714 0.973174) (xy -2.65242 0.776551)
    (xy -2.521147 0.495882) (xy -2.477666 0.1693) (xy -2.477666 1.241763) (xy -2.546508 1.249711)
    (xy -2.621231 1.309224) (xy -2.878218 1.445991) (xy -3.217657 1.504687) (xy -3.569034 1.479871)
    (xy -3.80339 1.400419) (xy -4.088961 1.16106) (xy -4.285339 0.798983) (xy -4.381519 0.341674)
    (xy -4.381592 -0.04337) (xy -4.295723 -0.52835) (xy -4.121167 -0.881745) (xy -3.848418 -1.121651)
    (xy -3.801632 -1.147327) (xy -3.453056 -1.254739) (xy -3.08228 -1.253734) (xy -2.757877 -1.147534)
    (xy -2.678419 -1.094521) (xy -2.526798 -0.988216) (xy -2.464319 -0.991527) (xy -2.455334 -1.052188)
    (xy -2.388313 -1.155815) (xy -2.201334 -1.185333) (xy -1.947334 -1.185333) (xy -1.947334 -1.185333)) (layer F.SilkS) (width 0.1))
  (fp_poly (pts (xy 10.922 -1.185333) (xy 10.921683 0.275167) (xy 10.919844 0.815437) (xy 10.912731 1.214854)
    (xy 10.897545 1.501878) (xy 10.871486 1.704972) (xy 10.831757 1.852596) (xy 10.775557 1.973213)
    (xy 10.750496 2.015928) (xy 10.491556 2.286437) (xy 10.122052 2.463379) (xy 9.67852 2.537057)
    (xy 9.197501 2.497775) (xy 9.059333 2.464733) (xy 8.895768 2.371297) (xy 8.826137 2.178202)
    (xy 8.821278 2.13642) (xy 8.79489 1.866494) (xy 9.159945 1.996198) (xy 9.477538 2.072202)
    (xy 9.766317 2.08044) (xy 9.796497 2.075803) (xy 10.051285 1.965494) (xy 10.269288 1.765315)
    (xy 10.398586 1.529743) (xy 10.414 1.427915) (xy 10.398363 1.302959) (xy 10.396776 1.302571)
    (xy 10.396776 0.0053) (xy 10.357622 -0.295608) (xy 10.310521 -0.420774) (xy 10.096544 -0.684916)
    (xy 9.824716 -0.80943) (xy 9.527611 -0.780134) (xy 9.505268 -0.771362) (xy 9.265242 -0.607384)
    (xy 9.121064 -0.341755) (xy 9.062051 0.048315) (xy 9.059333 0.17983) (xy 9.07698 0.466063)
    (xy 9.149809 0.664303) (xy 9.307653 0.853984) (xy 9.315464 0.861823) (xy 9.510759 1.027481)
    (xy 9.675915 1.078593) (xy 9.802297 1.061639) (xy 10.040656 0.959397) (xy 10.19495 0.84636)
    (xy 10.309402 0.642487) (xy 10.37869 0.340066) (xy 10.396776 0.0053) (xy 10.396776 1.302571)
    (xy 10.327566 1.285673) (xy 10.165779 1.373666) (xy 10.113029 1.407824) (xy 9.819926 1.509164)
    (xy 9.469951 1.499955) (xy 9.125891 1.389462) (xy 8.889595 1.227279) (xy 8.673201 0.917853)
    (xy 8.5342 0.505315) (xy 8.486707 0.043616) (xy 8.507696 -0.232485) (xy 8.635724 -0.628959)
    (xy 8.871744 -0.955533) (xy 9.182901 -1.179861) (xy 9.536337 -1.269595) (xy 9.561577 -1.27)
    (xy 9.856624 -1.237735) (xy 10.127079 -1.158341) (xy 10.164204 -1.140826) (xy 10.335307 -1.074607)
    (xy 10.413049 -1.090913) (xy 10.414 -1.098492) (xy 10.487562 -1.159463) (xy 10.66481 -1.185326)
    (xy 10.668 -1.185333) (xy 10.922 -1.185333) (xy 10.922 -1.185333)) (layer F.SilkS) (width 0.1))
  (fp_poly (pts (xy -5.08 1.524) (xy -5.334 1.524) (xy -5.52817 1.491319) (xy -5.587999 1.38459)
    (xy -5.588 1.383878) (xy -5.588 0.342871) (xy -5.615533 0.2289) (xy -5.728197 0.17897)
    (xy -5.921155 0.169334) (xy -6.260557 0.202174) (xy -6.558697 0.288699) (xy -6.759737 0.410914)
    (xy -6.791481 0.449797) (xy -6.860542 0.67711) (xy -6.791797 0.876784) (xy -6.616712 1.025826)
    (xy -6.366751 1.101243) (xy -6.073378 1.080041) (xy -5.972794 1.048073) (xy -5.823481 0.921619)
    (xy -5.686302 0.69892) (xy -5.59999 0.450964) (xy -5.588 0.342871) (xy -5.588 1.383878)
    (xy -5.60019 1.290902) (xy -5.665621 1.316615) (xy -5.742355 1.383445) (xy -5.978354 1.506534)
    (xy -6.303469 1.567782) (xy -6.646803 1.560757) (xy -6.914834 1.489823) (xy -7.179787 1.312241)
    (xy -7.323487 1.056323) (xy -7.366 0.694318) (xy -7.295194 0.318748) (xy -7.084039 0.036356)
    (xy -6.73443 -0.151553) (xy -6.248262 -0.243675) (xy -5.990167 -0.253528) (xy -5.709619 -0.281335)
    (xy -5.58927 -0.363881) (xy -5.629151 -0.501117) (xy -5.736167 -0.615281) (xy -6.029132 -0.781068)
    (xy -6.397926 -0.811983) (xy -6.853968 -0.708199) (xy -7.0485 -0.635124) (xy -7.153194 -0.621695)
    (xy -7.192924 -0.723799) (xy -7.196667 -0.829326) (xy -7.165282 -1.021707) (xy -7.038145 -1.133541)
    (xy -6.930033 -1.177051) (xy -6.504758 -1.267883) (xy -6.07781 -1.26037) (xy -5.688275 -1.164749)
    (xy -5.375239 -0.991257) (xy -5.177787 -0.750132) (xy -5.162557 -0.714116) (xy -5.129878 -0.545152)
    (xy -5.103312 -0.249771) (xy -5.085741 0.12914) (xy -5.08 0.513512) (xy -5.08 1.524)
    (xy -5.08 1.524)) (layer F.SilkS) (width 0.1))
  (fp_poly (pts (xy 3.132666 0.338667) (xy 2.572465 0.338667) (xy 2.572465 -0.291172) (xy 2.562441 -0.346661)
    (xy 2.445112 -0.54398) (xy 2.237745 -0.725438) (xy 2.010832 -0.835276) (xy 1.930349 -0.846666)
    (xy 1.660663 -0.785685) (xy 1.412425 -0.630768) (xy 1.238303 -0.423954) (xy 1.187828 -0.254)
    (xy 1.213615 -0.191737) (xy 1.314765 -0.157005) (xy 1.521674 -0.145514) (xy 1.864736 -0.152971)
    (xy 1.895319 -0.154118) (xy 2.240866 -0.170368) (xy 2.448186 -0.192646) (xy 2.548359 -0.229924)
    (xy 2.572465 -0.291172) (xy 2.572465 0.338667) (xy 2.12107 0.338667) (xy 1.109475 0.338667)
    (xy 1.19959 0.597171) (xy 1.353004 0.873778) (xy 1.592335 1.033339) (xy 1.940616 1.087098)
    (xy 2.180769 1.076218) (xy 2.485109 1.040941) (xy 2.745633 0.99826) (xy 2.8575 0.971544)
    (xy 2.997455 0.951652) (xy 3.044761 1.044191) (xy 3.048 1.130146) (xy 2.983164 1.344161)
    (xy 2.882569 1.437245) (xy 2.657297 1.507843) (xy 2.33197 1.553632) (xy 1.974587 1.570576)
    (xy 1.653145 1.55464) (xy 1.481666 1.520387) (xy 1.253087 1.426211) (xy 1.090217 1.331011)
    (xy 0.816192 1.019359) (xy 0.650379 0.620614) (xy 0.592279 0.177125) (xy 0.64139 -0.268759)
    (xy 0.797211 -0.674689) (xy 1.059241 -0.998318) (xy 1.118322 -1.045058) (xy 1.421688 -1.185032)
    (xy 1.806799 -1.252637) (xy 2.199915 -1.242571) (xy 2.527295 -1.149536) (xy 2.532804 -1.146721)
    (xy 2.7849 -0.933102) (xy 2.985695 -0.606152) (xy 3.10735 -0.220238) (xy 3.130807 0.021167)
    (xy 3.132666 0.338667) (xy 3.132666 0.338667)) (layer F.SilkS) (width 0.1))
  (fp_poly (pts (xy 5.926666 1.524) (xy 5.672666 1.524) (xy 5.476536 1.488598) (xy 5.445014 1.443675)
    (xy 5.445014 0.143426) (xy 4.920677 0.190971) (xy 4.622391 0.232166) (xy 4.38255 0.290619)
    (xy 4.272503 0.341292) (xy 4.173963 0.515853) (xy 4.155041 0.751845) (xy 4.218768 0.959674)
    (xy 4.250266 0.999067) (xy 4.447181 1.091492) (xy 4.713969 1.096821) (xy 4.979935 1.022372)
    (xy 5.148605 0.906097) (xy 5.296919 0.680158) (xy 5.388204 0.427476) (xy 5.445014 0.143426)
    (xy 5.445014 1.443675) (xy 5.418666 1.406127) (xy 5.387451 1.345917) (xy 5.271985 1.369744)
    (xy 5.104431 1.448461) (xy 4.681983 1.584978) (xy 4.264107 1.575925) (xy 4.094225 1.524713)
    (xy 3.837224 1.333826) (xy 3.683752 1.018398) (xy 3.640666 0.658495) (xy 3.701423 0.296726)
    (xy 3.88812 0.029607) (xy 4.207393 -0.147263) (xy 4.66588 -0.238283) (xy 5.0165 -0.253528)
    (xy 5.280614 -0.26527) (xy 5.395548 -0.314773) (xy 5.380776 -0.424666) (xy 5.289233 -0.570448)
    (xy 5.067978 -0.746492) (xy 4.745515 -0.818256) (xy 4.358037 -0.780429) (xy 4.188659 -0.731967)
    (xy 3.799778 -0.599462) (xy 3.826055 -0.867903) (xy 3.873875 -1.047886) (xy 3.994559 -1.163964)
    (xy 4.217506 -1.229684) (xy 4.572116 -1.258587) (xy 4.680552 -1.26156) (xy 5.098987 -1.24006)
    (xy 5.417241 -1.144474) (xy 5.647119 -0.957717) (xy 5.800424 -0.662704) (xy 5.888962 -0.24235)
    (xy 5.924537 0.320428) (xy 5.926666 0.541962) (xy 5.926666 1.524) (xy 5.926666 1.524)) (layer F.SilkS) (width 0.1))
  (fp_poly (pts (xy 0.508 -1.020486) (xy 0.495767 -0.862742) (xy 0.427197 -0.79393) (xy 0.25448 -0.781714)
    (xy 0.159604 -0.784865) (xy -0.10056 -0.769666) (xy -0.282116 -0.675309) (xy -0.390729 -0.563991)
    (xy -0.480296 -0.446823) (xy -0.538675 -0.319674) (xy -0.572456 -0.14464) (xy -0.588229 0.116181)
    (xy -0.592586 0.500692) (xy -0.592667 0.597388) (xy -0.592667 1.524) (xy -0.889 1.524)
    (xy -1.185334 1.524) (xy -1.185334 0.169334) (xy -1.185334 -1.185333) (xy -0.889 -1.185333)
    (xy -0.693141 -1.163524) (xy -0.59523 -1.109896) (xy -0.592667 -1.098492) (xy -0.52863 -1.072124)
    (xy -0.366086 -1.129151) (xy -0.342872 -1.140826) (xy -0.075657 -1.232643) (xy 0.207462 -1.27)
    (xy 0.408479 -1.256205) (xy 0.491669 -1.18661) (xy 0.508 -1.020486) (xy 0.508 -1.020486)) (layer F.SilkS) (width 0.1))
  (fp_poly (pts (xy 8.382 -1.021307) (xy 8.369472 -0.864735) (xy 8.300281 -0.794094) (xy 8.127013 -0.776863)
    (xy 8.026579 -0.777519) (xy 7.757078 -0.753833) (xy 7.569258 -0.651614) (xy 7.476246 -0.555824)
    (xy 7.389589 -0.440758) (xy 7.333135 -0.312) (xy 7.300522 -0.13191) (xy 7.285387 0.137153)
    (xy 7.28137 0.532829) (xy 7.281333 0.597388) (xy 7.281333 1.524) (xy 7.027333 1.524)
    (xy 6.773333 1.524) (xy 6.773333 0.169334) (xy 6.773333 -1.185333) (xy 7.027333 -1.185333)
    (xy 7.205665 -1.160182) (xy 7.281313 -1.099583) (xy 7.281333 -1.098492) (xy 7.34537 -1.072124)
    (xy 7.507914 -1.129151) (xy 7.531128 -1.140826) (xy 7.798343 -1.232643) (xy 8.081462 -1.27)
    (xy 8.282495 -1.256179) (xy 8.365691 -1.186609) (xy 8.382 -1.021307) (xy 8.382 -1.021307)) (layer F.SilkS) (width 0.1))
  (fp_poly (pts (xy -10.075334 -2.333698) (xy -10.076862 -1.893193) (xy -10.084359 -1.594574) (xy -10.102192 -1.410401)
    (xy -10.13473 -1.313234) (xy -10.186342 -1.275633) (xy -10.244667 -1.27) (xy -10.320209 -1.281146)
    (xy -10.369202 -1.334545) (xy -10.39735 -1.460133) (xy -10.410354 -1.687849) (xy -10.413917 -2.04763)
    (xy -10.414 -2.159) (xy -10.417523 -2.562193) (xy -10.430905 -2.824325) (xy -10.45837 -2.973573)
    (xy -10.504138 -3.038115) (xy -10.547209 -3.048) (xy -10.66516 -3.087748) (xy -10.666492 -3.17989)
    (xy -10.576065 -3.283767) (xy -10.418735 -3.358722) (xy -10.349807 -3.370864) (xy -10.075334 -3.397394)
    (xy -10.075334 -2.333698) (xy -10.075334 -2.333698)) (layer F.SilkS) (width 0.1))
  (fp_poly (pts (xy -8.689752 -1.90255) (xy -8.735768 -1.640407) (xy -8.843856 -1.443544) (xy -9.07266 -1.304955)
    (xy -9.365357 -1.277047) (xy -9.654994 -1.363018) (xy -9.717828 -1.401801) (xy -9.858601 -1.54173)
    (xy -9.906 -1.655801) (xy -9.84419 -1.753736) (xy -9.709533 -1.77222) (xy -9.578187 -1.712242)
    (xy -9.536716 -1.651) (xy -9.419805 -1.544191) (xy -9.238551 -1.537038) (xy -9.076267 -1.6256)
    (xy -8.982803 -1.818129) (xy -9.004849 -2.034345) (xy -9.1331 -2.195157) (xy -9.144 -2.201333)
    (xy -9.289995 -2.323998) (xy -9.277538 -2.464094) (xy -9.122834 -2.626957) (xy -8.995672 -2.763849)
    (xy -9.000082 -2.889287) (xy -9.025647 -2.936862) (xy -9.170601 -3.070831) (xy -9.349553 -3.11787)
    (xy -9.496379 -3.068267) (xy -9.534437 -3.011605) (xy -9.633465 -2.910037) (xy -9.775534 -2.881991)
    (xy -9.885897 -2.931299) (xy -9.906 -2.992544) (xy -9.831519 -3.169505) (xy -9.642477 -3.301066)
    (xy -9.390483 -3.374422) (xy -9.127144 -3.37677) (xy -8.904066 -3.295305) (xy -8.853715 -3.253619)
    (xy -8.748914 -3.054028) (xy -8.727245 -2.802084) (xy -8.790679 -2.5809) (xy -8.836379 -2.523251)
    (xy -8.90658 -2.419847) (xy -8.829123 -2.325325) (xy -8.819446 -2.318167) (xy -8.717005 -2.151378)
    (xy -8.689752 -1.90255) (xy -8.689752 -1.90255)) (layer F.SilkS) (width 0.1))
)
