(module BS_HEADER_S_1X18 (layer F.Cu)
  (descr "1 pin")
  (tags "CONN DEV")
  (fp_text reference BS_HEADER_S_1X18 (at 0 -2.286) (layer F.SilkS)
    (effects (font (size 1.0 1.0) (thickness 0.1778)))
  )
  (fp_text value Val** (at 0 0) (layer F.SilkS) hide
    (effects (font (size 1.0 1.0) (thickness 0.1778)))
  )
  (fp_line (start -20.32 -1.27) (end 22.86 -1.27) (layer F.SilkS) (width 0.2))
  (fp_line (start 22.86 -1.27) (end 22.86 1.27) (layer F.SilkS) (width 0.2))
  (fp_line (start 22.86 1.27) (end -20.32 1.27) (layer F.SilkS) (width 0.2))
  (fp_line (start -22.86 -1.27) (end -20.32 -1.27) (layer F.SilkS) (width 0.2))
  (fp_line (start -20.32 -1.27) (end -20.32 1.27) (layer F.SilkS) (width 0.2))
  (fp_line (start -22.86 -1.27) (end -22.86 1.27) (layer F.SilkS) (width 0.2))
  (fp_line (start -22.86 1.27) (end -20.32 1.27) (layer F.SilkS) (width 0.2))
  (pad 1 thru_hole rect (at -21.59 0) (size 1.8288 1.8288) (drill 1.0) (layers *.Cu *.Mask F.SilkS))
  (pad 2 thru_hole oval (at -19.05 0) (size 1.8288 1.8288) (drill 1.0) (layers *.Cu *.Mask F.SilkS))
  (pad 3 thru_hole oval (at -16.51 0) (size 1.8288 1.8288) (drill 1.0) (layers *.Cu *.Mask F.SilkS))
  (pad 4 thru_hole oval (at -13.97 0) (size 1.8288 1.8288) (drill 1.0) (layers *.Cu *.Mask F.SilkS))
  (pad 5 thru_hole oval (at -11.43 0) (size 1.8288 1.8288) (drill 1.0) (layers *.Cu *.Mask F.SilkS))
  (pad 6 thru_hole oval (at -8.89 0) (size 1.8288 1.8288) (drill 1.0) (layers *.Cu *.Mask F.SilkS))
  (pad 7 thru_hole oval (at -6.35 0) (size 1.8288 1.8288) (drill 1.0) (layers *.Cu *.Mask F.SilkS))
  (pad 8 thru_hole oval (at -3.81 0) (size 1.8288 1.8288) (drill 1.0) (layers *.Cu *.Mask F.SilkS))
  (pad 9 thru_hole oval (at -1.27 0) (size 1.8288 1.8288) (drill 1.0) (layers *.Cu *.Mask F.SilkS))
  (pad 10 thru_hole oval (at 1.27 0) (size 1.8288 1.8288) (drill 1.0) (layers *.Cu *.Mask F.SilkS))
  (pad 11 thru_hole oval (at 3.81 0) (size 1.8288 1.8288) (drill 1.0) (layers *.Cu *.Mask F.SilkS))
  (pad 12 thru_hole oval (at 6.35 0) (size 1.8288 1.8288) (drill 1.0) (layers *.Cu *.Mask F.SilkS))
  (pad 13 thru_hole oval (at 8.89 0) (size 1.8288 1.8288) (drill 1.0) (layers *.Cu *.Mask F.SilkS))
  (pad 14 thru_hole oval (at 11.43 0) (size 1.8288 1.8288) (drill 1.0) (layers *.Cu *.Mask F.SilkS))
  (pad 15 thru_hole oval (at 13.97 0) (size 1.8288 1.8288) (drill 1.0) (layers *.Cu *.Mask F.SilkS))
  (pad 16 thru_hole oval (at 16.51 0) (size 1.8288 1.8288) (drill 1.0) (layers *.Cu *.Mask F.SilkS))
  (pad 17 thru_hole oval (at 19.05 0) (size 1.8288 1.8288) (drill 1.0) (layers *.Cu *.Mask F.SilkS))
  (pad 18 thru_hole oval (at 21.59 0) (size 1.8288 1.8288) (drill 1.0) (layers *.Cu *.Mask F.SilkS))
  (model Pin_Headers/Pin_Header_Straight_1x18.wrl
    (at (xyz 0 0 0))
    (scale (xyz 1 1 1))
    (rotate (xyz 0 0 0))
  )
)
