(module BS_HEADER_S_2X08 (layer F.Cu)
  (descr "1 pin")
  (tags "CONN DEV")
  (fp_text reference BS_HEADER_S_2X08 (at 0 -3.81) (layer F.SilkS)
    (effects (font (size 1.0 1.0) (thickness 0.1778)))
  )
  (fp_text value Val** (at 0 0) (layer F.SilkS) hide
    (effects (font (size 1.0 1.0) (thickness 0.1778)))
  )
  (fp_line (start 10.16 -2.54) (end -10.16 -2.54) (layer F.SilkS) (width 0.2))
  (fp_line (start -7.62 2.54) (end 10.16 2.54) (layer F.SilkS) (width 0.2))
  (fp_line (start 10.16 -2.54) (end 10.16 2.54) (layer F.SilkS) (width 0.2))
  (fp_line (start -10.16 -2.54) (end -10.16 0) (layer F.SilkS) (width 0.2))
  (fp_line (start -10.16 2.54) (end -7.62 2.54) (layer F.SilkS) (width 0.2))
  (fp_line (start -10.16 0) (end -7.62 0) (layer F.SilkS) (width 0.2))
  (fp_line (start -7.62 0) (end -7.62 2.54) (layer F.SilkS) (width 0.2))
  (fp_line (start -10.16 2.54) (end -10.16 0) (layer F.SilkS) (width 0.2))
  (pad 1 thru_hole rect (at -8.89 1.27) (size 1.8288 1.8288) (drill 1.0) (layers *.Cu *.Mask F.SilkS))
  (pad 3 thru_hole oval (at -6.35 1.27) (size 1.8288 1.8288) (drill 1.0) (layers *.Cu *.Mask F.SilkS))
  (pad 5 thru_hole oval (at -3.81 1.27) (size 1.8288 1.8288) (drill 1.0) (layers *.Cu *.Mask F.SilkS))
  (pad 7 thru_hole oval (at -1.27 1.27) (size 1.8288 1.8288) (drill 1.0) (layers *.Cu *.Mask F.SilkS))
  (pad 9 thru_hole oval (at 1.27 1.27) (size 1.8288 1.8288) (drill 1.0) (layers *.Cu *.Mask F.SilkS))
  (pad 11 thru_hole oval (at 3.81 1.27) (size 1.8288 1.8288) (drill 1.0) (layers *.Cu *.Mask F.SilkS))
  (pad 13 thru_hole oval (at 6.35 1.27) (size 1.8288 1.8288) (drill 1.0) (layers *.Cu *.Mask F.SilkS))
  (pad 15 thru_hole oval (at 8.89 1.27) (size 1.8288 1.8288) (drill 1.0) (layers *.Cu *.Mask F.SilkS))
  (pad 16 thru_hole oval (at 8.89 -1.27) (size 1.8288 1.8288) (drill 1.0) (layers *.Cu *.Mask F.SilkS))
  (pad 14 thru_hole oval (at 6.35 -1.27) (size 1.8288 1.8288) (drill 1.0) (layers *.Cu *.Mask F.SilkS))
  (pad 12 thru_hole oval (at 3.81 -1.27) (size 1.8288 1.8288) (drill 1.0) (layers *.Cu *.Mask F.SilkS))
  (pad 10 thru_hole oval (at 1.27 -1.27) (size 1.8288 1.8288) (drill 1.0) (layers *.Cu *.Mask F.SilkS))
  (pad 8 thru_hole oval (at -1.27 -1.27) (size 1.8288 1.8288) (drill 1.0) (layers *.Cu *.Mask F.SilkS))
  (pad 6 thru_hole oval (at -3.81 -1.27) (size 1.8288 1.8288) (drill 1.0) (layers *.Cu *.Mask F.SilkS))
  (pad 4 thru_hole oval (at -6.35 -1.27) (size 1.8288 1.8288) (drill 1.0) (layers *.Cu *.Mask F.SilkS))
  (pad 2 thru_hole oval (at -8.89 -1.27) (size 1.8288 1.8288) (drill 1.0) (layers *.Cu *.Mask F.SilkS))
  (model Pin_Headers/Pin_Header_Straight_2x08.wrl
    (at (xyz 0 0 0))
    (scale (xyz 1 1 1))
    (rotate (xyz 0 0 0))
  )
)
