(module BS_HEADER_A_1X09 (layer F.Cu)
  (descr "1 pin")
  (tags "CONN DEV")
  (fp_text reference BS_HEADER_A_1X09 (at 0 2.286) (layer F.SilkS)
    (effects (font (size 1 1) (thickness 0.1778)))
  )
  (fp_text value Val** (at 0 0) (layer F.SilkS) hide
    (effects (font (size 1 1) (thickness 0.1778)))
  )
  (fp_line (start -8.89 -4.064) (end -11.43 -1.524) (layer F.SilkS) (width 0.2))
  (fp_line (start -11.43 -4.064) (end -8.89 -1.524) (layer F.SilkS) (width 0.2))
  (fp_line (start -10.287 -4.191) (end -10.287 -10.033) (layer F.SilkS) (width 0.2))
  (fp_line (start -10.287 -10.033) (end -10.033 -10.033) (layer F.SilkS) (width 0.2))
  (fp_line (start -10.033 -10.033) (end -10.033 -4.191) (layer F.SilkS) (width 0.2))
  (fp_line (start -10.033 -4.191) (end -10.16 -4.191) (layer F.SilkS) (width 0.2))
  (fp_line (start -10.16 -4.191) (end -10.16 -10.033) (layer F.SilkS) (width 0.2))
  (fp_line (start 9.906 -1.524) (end 9.906 -1.32) (layer F.SilkS) (width 0.2))
  (fp_line (start 10.414 -1.524) (end 10.414 -1.32) (layer F.SilkS) (width 0.2))
  (fp_line (start -10.414 -1.524) (end -10.414 -1.32) (layer F.SilkS) (width 0.2))
  (fp_line (start -9.906 -1.524) (end -9.906 -1.32) (layer F.SilkS) (width 0.2))
  (fp_line (start -7.874 -1.524) (end -7.874 -1.32) (layer F.SilkS) (width 0.2))
  (fp_line (start -7.366 -1.524) (end -7.366 -1.32) (layer F.SilkS) (width 0.2))
  (fp_line (start -5.334 -1.524) (end -5.334 -1.32) (layer F.SilkS) (width 0.2))
  (fp_line (start -4.826 -1.524) (end -4.826 -1.32) (layer F.SilkS) (width 0.2))
  (fp_line (start -2.794 -1.524) (end -2.794 -1.32) (layer F.SilkS) (width 0.2))
  (fp_line (start -2.286 -1.524) (end -2.286 -1.32) (layer F.SilkS) (width 0.2))
  (fp_line (start 7.874 -1.524) (end 7.874 -1.32) (layer F.SilkS) (width 0.2))
  (fp_line (start 7.366 -1.524) (end 7.366 -1.32) (layer F.SilkS) (width 0.2))
  (fp_line (start 5.334 -1.524) (end 5.334 -1.32) (layer F.SilkS) (width 0.2))
  (fp_line (start 4.826 -1.524) (end 4.826 -1.32) (layer F.SilkS) (width 0.2))
  (fp_line (start 2.794 -1.524) (end 2.794 -1.32) (layer F.SilkS) (width 0.2))
  (fp_line (start 2.286 -1.524) (end 2.286 -1.32) (layer F.SilkS) (width 0.2))
  (fp_line (start 0.254 -1.524) (end 0.254 -1.32) (layer F.SilkS) (width 0.2))
  (fp_line (start -0.254 -1.524) (end -0.254 -1.32) (layer F.SilkS) (width 0.2))
  (fp_line (start 6.35 -1.524) (end 6.35 -4.064) (layer F.SilkS) (width 0.2))
  (fp_line (start 6.35 -1.524) (end 8.89 -1.524) (layer F.SilkS) (width 0.2))
  (fp_line (start 8.89 -1.524) (end 8.89 -4.064) (layer F.SilkS) (width 0.2))
  (fp_line (start 7.366 -4.064) (end 7.366 -10.16) (layer F.SilkS) (width 0.2))
  (fp_line (start 7.366 -10.16) (end 7.874 -10.16) (layer F.SilkS) (width 0.2))
  (fp_line (start 7.874 -10.16) (end 7.874 -4.064) (layer F.SilkS) (width 0.2))
  (fp_line (start 8.89 -4.064) (end 6.35 -4.064) (layer F.SilkS) (width 0.2))
  (fp_line (start 11.43 -4.064) (end 8.89 -4.064) (layer F.SilkS) (width 0.2))
  (fp_line (start 10.414 -10.16) (end 10.414 -4.064) (layer F.SilkS) (width 0.2))
  (fp_line (start 9.906 -10.16) (end 10.414 -10.16) (layer F.SilkS) (width 0.2))
  (fp_line (start 9.906 -4.064) (end 9.906 -10.16) (layer F.SilkS) (width 0.2))
  (fp_line (start 8.89 -1.524) (end 11.43 -1.524) (layer F.SilkS) (width 0.2))
  (fp_line (start 8.89 -1.524) (end 8.89 -4.064) (layer F.SilkS) (width 0.2))
  (fp_line (start 11.43 -1.524) (end 11.43 -4.064) (layer F.SilkS) (width 0.2))
  (fp_line (start -8.89 -4.064) (end -11.43 -4.064) (layer F.SilkS) (width 0.2))
  (fp_line (start -9.906 -10.16) (end -9.906 -4.064) (layer F.SilkS) (width 0.2))
  (fp_line (start -10.414 -10.16) (end -9.906 -10.16) (layer F.SilkS) (width 0.2))
  (fp_line (start -10.414 -4.064) (end -10.414 -10.16) (layer F.SilkS) (width 0.2))
  (fp_line (start -8.89 -1.524) (end -8.89 -4.064) (layer F.SilkS) (width 0.2))
  (fp_line (start -11.43 -1.524) (end -8.89 -1.524) (layer F.SilkS) (width 0.2))
  (fp_line (start -11.43 -1.524) (end -11.43 -4.064) (layer F.SilkS) (width 0.2))
  (fp_line (start -6.35 -1.524) (end -6.35 -4.064) (layer F.SilkS) (width 0.2))
  (fp_line (start -6.35 -1.524) (end -3.81 -1.524) (layer F.SilkS) (width 0.2))
  (fp_line (start -3.81 -1.524) (end -3.81 -4.064) (layer F.SilkS) (width 0.2))
  (fp_line (start -5.334 -4.064) (end -5.334 -10.16) (layer F.SilkS) (width 0.2))
  (fp_line (start -5.334 -10.16) (end -4.826 -10.16) (layer F.SilkS) (width 0.2))
  (fp_line (start -4.826 -10.16) (end -4.826 -4.064) (layer F.SilkS) (width 0.2))
  (fp_line (start -3.81 -4.064) (end -6.35 -4.064) (layer F.SilkS) (width 0.2))
  (fp_line (start -6.35 -4.064) (end -8.89 -4.064) (layer F.SilkS) (width 0.2))
  (fp_line (start -7.366 -10.16) (end -7.366 -4.064) (layer F.SilkS) (width 0.2))
  (fp_line (start -7.874 -10.16) (end -7.366 -10.16) (layer F.SilkS) (width 0.2))
  (fp_line (start -7.874 -4.064) (end -7.874 -10.16) (layer F.SilkS) (width 0.2))
  (fp_line (start -6.35 -1.524) (end -6.35 -4.064) (layer F.SilkS) (width 0.2))
  (fp_line (start -8.89 -1.524) (end -6.35 -1.524) (layer F.SilkS) (width 0.2))
  (fp_line (start -8.89 -1.524) (end -8.89 -4.064) (layer F.SilkS) (width 0.2))
  (fp_line (start 1.27 -1.524) (end 1.27 -4.064) (layer F.SilkS) (width 0.2))
  (fp_line (start 1.27 -1.524) (end 3.81 -1.524) (layer F.SilkS) (width 0.2))
  (fp_line (start 3.81 -1.524) (end 3.81 -4.064) (layer F.SilkS) (width 0.2))
  (fp_line (start 2.286 -4.064) (end 2.286 -10.16) (layer F.SilkS) (width 0.2))
  (fp_line (start 2.286 -10.16) (end 2.794 -10.16) (layer F.SilkS) (width 0.2))
  (fp_line (start 2.794 -10.16) (end 2.794 -4.064) (layer F.SilkS) (width 0.2))
  (fp_line (start 3.81 -4.064) (end 1.27 -4.064) (layer F.SilkS) (width 0.2))
  (fp_line (start 6.35 -4.064) (end 3.81 -4.064) (layer F.SilkS) (width 0.2))
  (fp_line (start 5.334 -10.16) (end 5.334 -4.064) (layer F.SilkS) (width 0.2))
  (fp_line (start 4.826 -10.16) (end 5.334 -10.16) (layer F.SilkS) (width 0.2))
  (fp_line (start 4.826 -4.064) (end 4.826 -10.16) (layer F.SilkS) (width 0.2))
  (fp_line (start 6.35 -1.524) (end 6.35 -4.064) (layer F.SilkS) (width 0.2))
  (fp_line (start 3.81 -1.524) (end 6.35 -1.524) (layer F.SilkS) (width 0.2))
  (fp_line (start 3.81 -1.524) (end 3.81 -4.064) (layer F.SilkS) (width 0.2))
  (fp_line (start -1.27 -1.524) (end -1.27 -4.064) (layer F.SilkS) (width 0.2))
  (fp_line (start -1.27 -1.524) (end 1.27 -1.524) (layer F.SilkS) (width 0.2))
  (fp_line (start 1.27 -1.524) (end 1.27 -4.064) (layer F.SilkS) (width 0.2))
  (fp_line (start -0.254 -4.064) (end -0.254 -10.16) (layer F.SilkS) (width 0.2))
  (fp_line (start -0.254 -10.16) (end 0.254 -10.16) (layer F.SilkS) (width 0.2))
  (fp_line (start 0.254 -10.16) (end 0.254 -4.064) (layer F.SilkS) (width 0.2))
  (fp_line (start 1.27 -4.064) (end -1.27 -4.064) (layer F.SilkS) (width 0.2))
  (fp_line (start -1.27 -4.064) (end -3.81 -4.064) (layer F.SilkS) (width 0.2))
  (fp_line (start -2.286 -10.16) (end -2.286 -4.064) (layer F.SilkS) (width 0.2))
  (fp_line (start -2.794 -10.16) (end -2.286 -10.16) (layer F.SilkS) (width 0.2))
  (fp_line (start -2.794 -4.064) (end -2.794 -10.16) (layer F.SilkS) (width 0.2))
  (fp_line (start -1.27 -1.524) (end -1.27 -4.064) (layer F.SilkS) (width 0.2))
  (fp_line (start -3.81 -1.524) (end -1.27 -1.524) (layer F.SilkS) (width 0.2))
  (fp_line (start -3.81 -1.524) (end -3.81 -4.064) (layer F.SilkS) (width 0.2))
  (pad 1 thru_hole rect (at -10.16 0) (size 1.7272 2.032) (drill 1.0) (layers *.Cu *.Mask F.SilkS))
  (pad 2 thru_hole oval (at -7.62 0) (size 1.7272 2.032) (drill 1.0) (layers *.Cu *.Mask F.SilkS))
  (pad 3 thru_hole oval (at -5.08 0) (size 1.7272 2.032) (drill 1.0) (layers *.Cu *.Mask F.SilkS))
  (pad 4 thru_hole oval (at -2.54 0) (size 1.7272 2.032) (drill 1.0) (layers *.Cu *.Mask F.SilkS))
  (pad 5 thru_hole oval (at 0 0) (size 1.7272 2.032) (drill 1.0) (layers *.Cu *.Mask F.SilkS))
  (pad 6 thru_hole oval (at 2.54 0) (size 1.7272 2.032) (drill 1.0) (layers *.Cu *.Mask F.SilkS))
  (pad 7 thru_hole oval (at 5.08 0) (size 1.7272 2.032) (drill 1.0) (layers *.Cu *.Mask F.SilkS))
  (pad 8 thru_hole oval (at 7.62 0) (size 1.7272 2.032) (drill 1.0) (layers *.Cu *.Mask F.SilkS))
  (pad 9 thru_hole oval (at 10.16 0) (size 1.7272 2.032) (drill 1.0) (layers *.Cu *.Mask F.SilkS))
  (model Pin_Headers/Pin_Header_Angled_1x09.wrl
    (at (xyz 0 0 0))
    (scale (xyz 1 1 1))
    (rotate (xyz 0 0 0))
  )
)
