(module BS_HEADER_A_2X04 (layer F.Cu)
  (descr "1 pin")
  (tags "CONN DEV")
  (fp_text reference BS_HEADER_A_2X04 (at 0 3.81) (layer F.SilkS)
    (effects (font (size 1 1) (thickness 0.1778)))
  )
  (fp_text value Val** (at 0 0) (layer F.SilkS) hide
    (effects (font (size 1 1) (thickness 0.1778)))
  )
  (fp_line (start 4.064 -0.0762) (end 4.064 0.0508) (layer F.SilkS) (width 0.2))
  (fp_line (start 3.556 -0.0762) (end 3.556 0.0508) (layer F.SilkS) (width 0.2))
  (fp_line (start 1.524 -0.0762) (end 1.524 0.0508) (layer F.SilkS) (width 0.2))
  (fp_line (start 1.016 -0.0762) (end 1.016 0.0508) (layer F.SilkS) (width 0.2))
  (fp_line (start -1.016 -0.0762) (end -1.016 0.0508) (layer F.SilkS) (width 0.2))
  (fp_line (start -1.524 -0.0762) (end -1.524 0.0508) (layer F.SilkS) (width 0.2))
  (fp_line (start -3.556 -0.0762) (end -3.556 0.0508) (layer F.SilkS) (width 0.2))
  (fp_line (start -4.064 -0.0762) (end -4.064 0.0508) (layer F.SilkS) (width 0.2))
  (fp_line (start -4.064 -2.794) (end -4.064 -2.4368) (layer F.SilkS) (width 0.2))
  (fp_line (start -3.556 -2.794) (end -3.556 -2.4368) (layer F.SilkS) (width 0.2))
  (fp_line (start -1.524 -2.794) (end -1.524 -2.4368) (layer F.SilkS) (width 0.2))
  (fp_line (start -1.016 -2.794) (end -1.016 -2.4368) (layer F.SilkS) (width 0.2))
  (fp_line (start 4.064 -2.794) (end 4.064 -2.4368) (layer F.SilkS) (width 0.2))
  (fp_line (start 3.556 -2.794) (end 3.556 -2.4368) (layer F.SilkS) (width 0.2))
  (fp_line (start 1.524 -2.794) (end 1.524 -2.4368) (layer F.SilkS) (width 0.2))
  (fp_line (start 1.016 -2.794) (end 1.016 -2.4368) (layer F.SilkS) (width 0.2))
  (fp_line (start -5.08 -2.794) (end -2.54 -5.334) (layer F.SilkS) (width 0.2))
  (fp_line (start -5.08 -5.334) (end -2.54 -2.794) (layer F.SilkS) (width 0.2))
  (fp_line (start -3.937 -5.334) (end -3.937 -11.303) (layer F.SilkS) (width 0.2))
  (fp_line (start -3.937 -11.303) (end -3.683 -11.303) (layer F.SilkS) (width 0.2))
  (fp_line (start -3.683 -11.303) (end -3.683 -5.461) (layer F.SilkS) (width 0.2))
  (fp_line (start -3.683 -5.461) (end -3.81 -5.461) (layer F.SilkS) (width 0.2))
  (fp_line (start -3.81 -5.461) (end -3.81 -11.303) (layer F.SilkS) (width 0.2))
  (fp_line (start 5.08 -2.794) (end 5.08 -5.334) (layer F.SilkS) (width 0.2))
  (fp_line (start 0 -2.794) (end 0 -5.334) (layer F.SilkS) (width 0.2))
  (fp_line (start 0 -2.794) (end 2.54 -2.794) (layer F.SilkS) (width 0.2))
  (fp_line (start 2.54 -2.794) (end 2.54 -5.334) (layer F.SilkS) (width 0.2))
  (fp_line (start 1.016 -5.334) (end 1.016 -11.43) (layer F.SilkS) (width 0.2))
  (fp_line (start 1.016 -11.43) (end 1.524 -11.43) (layer F.SilkS) (width 0.2))
  (fp_line (start 1.524 -11.43) (end 1.524 -5.334) (layer F.SilkS) (width 0.2))
  (fp_line (start 2.54 -5.334) (end 0 -5.334) (layer F.SilkS) (width 0.2))
  (fp_line (start 5.08 -5.334) (end 2.54 -5.334) (layer F.SilkS) (width 0.2))
  (fp_line (start 4.064 -11.43) (end 4.064 -5.334) (layer F.SilkS) (width 0.2))
  (fp_line (start 3.556 -11.43) (end 4.064 -11.43) (layer F.SilkS) (width 0.2))
  (fp_line (start 3.556 -5.334) (end 3.556 -11.43) (layer F.SilkS) (width 0.2))
  (fp_line (start 5.08 -2.794) (end 5.08 -5.334) (layer F.SilkS) (width 0.2))
  (fp_line (start 2.54 -2.794) (end 5.08 -2.794) (layer F.SilkS) (width 0.2))
  (fp_line (start 2.54 -2.794) (end 2.54 -5.334) (layer F.SilkS) (width 0.2))
  (fp_line (start -2.54 -2.794) (end -2.54 -5.334) (layer F.SilkS) (width 0.2))
  (fp_line (start -2.54 -2.794) (end 0 -2.794) (layer F.SilkS) (width 0.2))
  (fp_line (start 0 -2.794) (end 0 -5.334) (layer F.SilkS) (width 0.2))
  (fp_line (start -1.524 -5.334) (end -1.524 -11.43) (layer F.SilkS) (width 0.2))
  (fp_line (start -1.524 -11.43) (end -1.016 -11.43) (layer F.SilkS) (width 0.2))
  (fp_line (start -1.016 -11.43) (end -1.016 -5.334) (layer F.SilkS) (width 0.2))
  (fp_line (start 0 -5.334) (end -2.54 -5.334) (layer F.SilkS) (width 0.2))
  (fp_line (start -2.54 -5.334) (end -5.08 -5.334) (layer F.SilkS) (width 0.2))
  (fp_line (start -3.556 -11.43) (end -3.556 -5.334) (layer F.SilkS) (width 0.2))
  (fp_line (start -4.064 -11.43) (end -3.556 -11.43) (layer F.SilkS) (width 0.2))
  (fp_line (start -4.064 -5.334) (end -4.064 -11.43) (layer F.SilkS) (width 0.2))
  (fp_line (start -2.54 -2.794) (end -2.54 -5.334) (layer F.SilkS) (width 0.2))
  (fp_line (start -5.08 -2.794) (end -2.54 -2.794) (layer F.SilkS) (width 0.2))
  (fp_line (start -5.08 -2.794) (end -5.08 -5.334) (layer F.SilkS) (width 0.2))
  (pad 1 thru_hole rect (at -3.81 1.27) (size 1.7272 1.7272) (drill 1.0) (layers *.Cu *.Mask F.SilkS))
  (pad 3 thru_hole oval (at -1.27 1.27) (size 1.7272 1.7272) (drill 1.0) (layers *.Cu *.Mask F.SilkS))
  (pad 5 thru_hole oval (at 1.27 1.27) (size 1.7272 1.7272) (drill 1.0) (layers *.Cu *.Mask F.SilkS))
  (pad 7 thru_hole oval (at 3.81 1.27) (size 1.7272 1.7272) (drill 1.0) (layers *.Cu *.Mask F.SilkS))
  (pad 5 thru_hole oval (at 3.81 -1.27) (size 1.7272 1.7272) (drill 1.0) (layers *.Cu *.Mask F.SilkS))
  (pad 8 thru_hole oval (at 1.27 -1.27) (size 1.7272 1.7272) (drill 1.0) (layers *.Cu *.Mask F.SilkS))
  (pad 4 thru_hole oval (at -1.27 -1.27) (size 1.7272 1.7272) (drill 1.0) (layers *.Cu *.Mask F.SilkS))
  (pad 2 thru_hole oval (at -3.81 -1.27) (size 1.7272 1.7272) (drill 1.0) (layers *.Cu *.Mask F.SilkS))
  (model Pin_Headers/Pin_Header_Angled_2x04.wrl
    (at (xyz 0 0 0))
    (scale (xyz 1 1 1))
    (rotate (xyz 0 0 0))
  )
)
