(module BS_HEADER_A_1X37 (layer F.Cu)
  (descr "1 pin")
  (tags "CONN DEV")
  (fp_text reference BS_HEADER_A_1X37 (at 0 2.286) (layer F.SilkS)
    (effects (font (size 1 1) (thickness 0.1778)))
  )
  (fp_text value Val** (at 0 0) (layer F.SilkS) hide
    (effects (font (size 1 1) (thickness 0.1778)))
  )
  (fp_line (start -44.45 -4.064) (end -46.99 -1.524) (layer F.SilkS) (width 0.2))
  (fp_line (start -46.99 -4.064) (end -44.45 -1.524) (layer F.SilkS) (width 0.2))
  (fp_line (start -45.847 -4.191) (end -45.847 -10.033) (layer F.SilkS) (width 0.2))
  (fp_line (start -45.847 -10.033) (end -45.593 -10.033) (layer F.SilkS) (width 0.2))
  (fp_line (start -45.593 -10.033) (end -45.593 -4.191) (layer F.SilkS) (width 0.2))
  (fp_line (start -45.593 -4.191) (end -45.72 -4.191) (layer F.SilkS) (width 0.2))
  (fp_line (start -45.72 -4.191) (end -45.72 -10.033) (layer F.SilkS) (width 0.2))
  (fp_line (start 35.306 -1.524) (end 35.306 -1.32) (layer F.SilkS) (width 0.2))
  (fp_line (start 35.814 -1.524) (end 35.814 -1.32) (layer F.SilkS) (width 0.2))
  (fp_line (start 37.846 -1.524) (end 37.846 -1.32) (layer F.SilkS) (width 0.2))
  (fp_line (start 38.354 -1.524) (end 38.354 -1.32) (layer F.SilkS) (width 0.2))
  (fp_line (start 40.386 -1.524) (end 40.386 -1.32) (layer F.SilkS) (width 0.2))
  (fp_line (start 40.894 -1.524) (end 40.894 -1.32) (layer F.SilkS) (width 0.2))
  (fp_line (start 45.974 -1.524) (end 45.974 -1.32) (layer F.SilkS) (width 0.2))
  (fp_line (start 45.466 -1.524) (end 45.466 -1.32) (layer F.SilkS) (width 0.2))
  (fp_line (start 43.434 -1.524) (end 43.434 -1.32) (layer F.SilkS) (width 0.2))
  (fp_line (start 42.926 -1.524) (end 42.926 -1.32) (layer F.SilkS) (width 0.2))
  (fp_line (start -5.334 -1.524) (end -5.334 -1.32) (layer F.SilkS) (width 0.2))
  (fp_line (start -4.826 -1.524) (end -4.826 -1.32) (layer F.SilkS) (width 0.2))
  (fp_line (start -2.794 -1.524) (end -2.794 -1.32) (layer F.SilkS) (width 0.2))
  (fp_line (start -2.286 -1.524) (end -2.286 -1.32) (layer F.SilkS) (width 0.2))
  (fp_line (start -0.254 -1.524) (end -0.254 -1.32) (layer F.SilkS) (width 0.2))
  (fp_line (start 0.254 -1.524) (end 0.254 -1.32) (layer F.SilkS) (width 0.2))
  (fp_line (start 2.286 -1.524) (end 2.286 -1.32) (layer F.SilkS) (width 0.2))
  (fp_line (start 2.794 -1.524) (end 2.794 -1.32) (layer F.SilkS) (width 0.2))
  (fp_line (start 12.954 -1.524) (end 12.954 -1.32) (layer F.SilkS) (width 0.2))
  (fp_line (start 12.446 -1.524) (end 12.446 -1.32) (layer F.SilkS) (width 0.2))
  (fp_line (start 10.414 -1.524) (end 10.414 -1.32) (layer F.SilkS) (width 0.2))
  (fp_line (start 9.906 -1.524) (end 9.906 -1.32) (layer F.SilkS) (width 0.2))
  (fp_line (start 7.874 -1.524) (end 7.874 -1.32) (layer F.SilkS) (width 0.2))
  (fp_line (start 7.366 -1.524) (end 7.366 -1.32) (layer F.SilkS) (width 0.2))
  (fp_line (start 5.334 -1.524) (end 5.334 -1.32) (layer F.SilkS) (width 0.2))
  (fp_line (start 4.826 -1.524) (end 4.826 -1.32) (layer F.SilkS) (width 0.2))
  (fp_line (start 25.146 -1.524) (end 25.146 -1.32) (layer F.SilkS) (width 0.2))
  (fp_line (start 25.654 -1.524) (end 25.654 -1.32) (layer F.SilkS) (width 0.2))
  (fp_line (start 27.686 -1.524) (end 27.686 -1.32) (layer F.SilkS) (width 0.2))
  (fp_line (start 28.194 -1.524) (end 28.194 -1.32) (layer F.SilkS) (width 0.2))
  (fp_line (start 30.226 -1.524) (end 30.226 -1.32) (layer F.SilkS) (width 0.2))
  (fp_line (start 30.734 -1.524) (end 30.734 -1.32) (layer F.SilkS) (width 0.2))
  (fp_line (start 32.766 -1.524) (end 32.766 -1.32) (layer F.SilkS) (width 0.2))
  (fp_line (start 33.274 -1.524) (end 33.274 -1.32) (layer F.SilkS) (width 0.2))
  (fp_line (start 23.114 -1.524) (end 23.114 -1.32) (layer F.SilkS) (width 0.2))
  (fp_line (start 22.606 -1.524) (end 22.606 -1.32) (layer F.SilkS) (width 0.2))
  (fp_line (start 20.574 -1.524) (end 20.574 -1.32) (layer F.SilkS) (width 0.2))
  (fp_line (start 20.066 -1.524) (end 20.066 -1.32) (layer F.SilkS) (width 0.2))
  (fp_line (start 18.034 -1.524) (end 18.034 -1.32) (layer F.SilkS) (width 0.2))
  (fp_line (start 17.526 -1.524) (end 17.526 -1.32) (layer F.SilkS) (width 0.2))
  (fp_line (start 15.494 -1.524) (end 15.494 -1.32) (layer F.SilkS) (width 0.2))
  (fp_line (start 14.986 -1.524) (end 14.986 -1.32) (layer F.SilkS) (width 0.2))
  (fp_line (start -25.654 -1.524) (end -25.654 -1.32) (layer F.SilkS) (width 0.2))
  (fp_line (start -25.146 -1.524) (end -25.146 -1.32) (layer F.SilkS) (width 0.2))
  (fp_line (start -23.114 -1.524) (end -23.114 -1.32) (layer F.SilkS) (width 0.2))
  (fp_line (start -22.606 -1.524) (end -22.606 -1.32) (layer F.SilkS) (width 0.2))
  (fp_line (start -20.574 -1.524) (end -20.574 -1.32) (layer F.SilkS) (width 0.2))
  (fp_line (start -20.066 -1.524) (end -20.066 -1.32) (layer F.SilkS) (width 0.2))
  (fp_line (start -18.034 -1.524) (end -18.034 -1.32) (layer F.SilkS) (width 0.2))
  (fp_line (start -17.526 -1.524) (end -17.526 -1.32) (layer F.SilkS) (width 0.2))
  (fp_line (start -7.366 -1.524) (end -7.366 -1.32) (layer F.SilkS) (width 0.2))
  (fp_line (start -7.874 -1.524) (end -7.874 -1.32) (layer F.SilkS) (width 0.2))
  (fp_line (start -9.906 -1.524) (end -9.906 -1.32) (layer F.SilkS) (width 0.2))
  (fp_line (start -10.414 -1.524) (end -10.414 -1.32) (layer F.SilkS) (width 0.2))
  (fp_line (start -12.446 -1.524) (end -12.446 -1.32) (layer F.SilkS) (width 0.2))
  (fp_line (start -12.954 -1.524) (end -12.954 -1.32) (layer F.SilkS) (width 0.2))
  (fp_line (start -14.986 -1.524) (end -14.986 -1.32) (layer F.SilkS) (width 0.2))
  (fp_line (start -15.494 -1.524) (end -15.494 -1.32) (layer F.SilkS) (width 0.2))
  (fp_line (start -35.814 -1.524) (end -35.814 -1.32) (layer F.SilkS) (width 0.2))
  (fp_line (start -35.306 -1.524) (end -35.306 -1.32) (layer F.SilkS) (width 0.2))
  (fp_line (start -33.274 -1.524) (end -33.274 -1.32) (layer F.SilkS) (width 0.2))
  (fp_line (start -32.766 -1.524) (end -32.766 -1.32) (layer F.SilkS) (width 0.2))
  (fp_line (start -30.734 -1.524) (end -30.734 -1.32) (layer F.SilkS) (width 0.2))
  (fp_line (start -30.226 -1.524) (end -30.226 -1.32) (layer F.SilkS) (width 0.2))
  (fp_line (start -28.194 -1.524) (end -28.194 -1.32) (layer F.SilkS) (width 0.2))
  (fp_line (start -27.686 -1.524) (end -27.686 -1.32) (layer F.SilkS) (width 0.2))
  (fp_line (start -37.846 -1.524) (end -37.846 -1.32) (layer F.SilkS) (width 0.2))
  (fp_line (start -38.354 -1.524) (end -38.354 -1.32) (layer F.SilkS) (width 0.2))
  (fp_line (start -40.386 -1.524) (end -40.386 -1.32) (layer F.SilkS) (width 0.2))
  (fp_line (start -40.894 -1.524) (end -40.894 -1.32) (layer F.SilkS) (width 0.2))
  (fp_line (start -42.926 -1.524) (end -42.926 -1.32) (layer F.SilkS) (width 0.2))
  (fp_line (start -43.434 -1.524) (end -43.434 -1.32) (layer F.SilkS) (width 0.2))
  (fp_line (start -45.466 -1.524) (end -45.466 -1.32) (layer F.SilkS) (width 0.2))
  (fp_line (start -45.974 -1.524) (end -45.974 -1.32) (layer F.SilkS) (width 0.2))
  (fp_line (start 31.75 -1.524) (end 34.29 -1.524) (layer F.SilkS) (width 0.2))
  (fp_line (start 34.29 -1.524) (end 34.29 -4.064) (layer F.SilkS) (width 0.2))
  (fp_line (start 32.766 -4.064) (end 32.766 -10.16) (layer F.SilkS) (width 0.2))
  (fp_line (start 32.766 -10.16) (end 33.274 -10.16) (layer F.SilkS) (width 0.2))
  (fp_line (start 33.274 -10.16) (end 33.274 -4.064) (layer F.SilkS) (width 0.2))
  (fp_line (start 34.29 -4.064) (end 31.75 -4.064) (layer F.SilkS) (width 0.2))
  (fp_line (start 36.83 -4.064) (end 34.29 -4.064) (layer F.SilkS) (width 0.2))
  (fp_line (start 35.814 -10.16) (end 35.814 -4.064) (layer F.SilkS) (width 0.2))
  (fp_line (start 35.306 -10.16) (end 35.814 -10.16) (layer F.SilkS) (width 0.2))
  (fp_line (start 35.306 -4.064) (end 35.306 -10.16) (layer F.SilkS) (width 0.2))
  (fp_line (start 36.83 -1.524) (end 36.83 -4.064) (layer F.SilkS) (width 0.2))
  (fp_line (start 34.29 -1.524) (end 36.83 -1.524) (layer F.SilkS) (width 0.2))
  (fp_line (start 34.29 -1.524) (end 34.29 -4.064) (layer F.SilkS) (width 0.2))
  (fp_line (start 39.37 -1.524) (end 39.37 -4.064) (layer F.SilkS) (width 0.2))
  (fp_line (start 39.37 -1.524) (end 41.91 -1.524) (layer F.SilkS) (width 0.2))
  (fp_line (start 41.91 -1.524) (end 41.91 -4.064) (layer F.SilkS) (width 0.2))
  (fp_line (start 40.386 -4.064) (end 40.386 -10.16) (layer F.SilkS) (width 0.2))
  (fp_line (start 40.386 -10.16) (end 40.894 -10.16) (layer F.SilkS) (width 0.2))
  (fp_line (start 40.894 -10.16) (end 40.894 -4.064) (layer F.SilkS) (width 0.2))
  (fp_line (start 41.91 -4.064) (end 39.37 -4.064) (layer F.SilkS) (width 0.2))
  (fp_line (start 39.37 -4.064) (end 36.83 -4.064) (layer F.SilkS) (width 0.2))
  (fp_line (start 38.354 -10.16) (end 38.354 -4.064) (layer F.SilkS) (width 0.2))
  (fp_line (start 37.846 -10.16) (end 38.354 -10.16) (layer F.SilkS) (width 0.2))
  (fp_line (start 37.846 -4.064) (end 37.846 -10.16) (layer F.SilkS) (width 0.2))
  (fp_line (start 39.37 -1.524) (end 39.37 -4.064) (layer F.SilkS) (width 0.2))
  (fp_line (start 36.83 -1.524) (end 39.37 -1.524) (layer F.SilkS) (width 0.2))
  (fp_line (start 36.83 -1.524) (end 36.83 -4.064) (layer F.SilkS) (width 0.2))
  (fp_line (start 44.45 -1.524) (end 44.45 -4.064) (layer F.SilkS) (width 0.2))
  (fp_line (start 44.45 -1.524) (end 46.99 -1.524) (layer F.SilkS) (width 0.2))
  (fp_line (start 46.99 -1.524) (end 46.99 -4.064) (layer F.SilkS) (width 0.2))
  (fp_line (start 45.466 -4.064) (end 45.466 -10.16) (layer F.SilkS) (width 0.2))
  (fp_line (start 45.466 -10.16) (end 45.974 -10.16) (layer F.SilkS) (width 0.2))
  (fp_line (start 45.974 -10.16) (end 45.974 -4.064) (layer F.SilkS) (width 0.2))
  (fp_line (start 46.99 -4.064) (end 44.45 -4.064) (layer F.SilkS) (width 0.2))
  (fp_line (start 44.45 -4.064) (end 41.91 -4.064) (layer F.SilkS) (width 0.2))
  (fp_line (start 43.434 -10.16) (end 43.434 -4.064) (layer F.SilkS) (width 0.2))
  (fp_line (start 42.926 -10.16) (end 43.434 -10.16) (layer F.SilkS) (width 0.2))
  (fp_line (start 42.926 -4.064) (end 42.926 -10.16) (layer F.SilkS) (width 0.2))
  (fp_line (start 44.45 -1.524) (end 44.45 -4.064) (layer F.SilkS) (width 0.2))
  (fp_line (start 41.91 -1.524) (end 44.45 -1.524) (layer F.SilkS) (width 0.2))
  (fp_line (start 41.91 -1.524) (end 41.91 -4.064) (layer F.SilkS) (width 0.2))
  (fp_line (start 31.75 -1.524) (end 31.75 -4.064) (layer F.SilkS) (width 0.2))
  (fp_line (start -8.89 -1.524) (end -8.89 -4.064) (layer F.SilkS) (width 0.2))
  (fp_line (start -8.89 -1.524) (end -6.35 -1.524) (layer F.SilkS) (width 0.2))
  (fp_line (start -6.35 -1.524) (end -6.35 -4.064) (layer F.SilkS) (width 0.2))
  (fp_line (start -7.874 -4.064) (end -7.874 -10.16) (layer F.SilkS) (width 0.2))
  (fp_line (start -7.874 -10.16) (end -7.366 -10.16) (layer F.SilkS) (width 0.2))
  (fp_line (start -7.366 -10.16) (end -7.366 -4.064) (layer F.SilkS) (width 0.2))
  (fp_line (start -6.35 -4.064) (end -8.89 -4.064) (layer F.SilkS) (width 0.2))
  (fp_line (start -3.81 -4.064) (end -6.35 -4.064) (layer F.SilkS) (width 0.2))
  (fp_line (start -4.826 -10.16) (end -4.826 -4.064) (layer F.SilkS) (width 0.2))
  (fp_line (start -5.334 -10.16) (end -4.826 -10.16) (layer F.SilkS) (width 0.2))
  (fp_line (start -5.334 -4.064) (end -5.334 -10.16) (layer F.SilkS) (width 0.2))
  (fp_line (start -3.81 -1.524) (end -3.81 -4.064) (layer F.SilkS) (width 0.2))
  (fp_line (start -6.35 -1.524) (end -3.81 -1.524) (layer F.SilkS) (width 0.2))
  (fp_line (start -6.35 -1.524) (end -6.35 -4.064) (layer F.SilkS) (width 0.2))
  (fp_line (start -1.27 -1.524) (end -1.27 -4.064) (layer F.SilkS) (width 0.2))
  (fp_line (start -1.27 -1.524) (end 1.27 -1.524) (layer F.SilkS) (width 0.2))
  (fp_line (start 1.27 -1.524) (end 1.27 -4.064) (layer F.SilkS) (width 0.2))
  (fp_line (start -0.254 -4.064) (end -0.254 -10.16) (layer F.SilkS) (width 0.2))
  (fp_line (start -0.254 -10.16) (end 0.254 -10.16) (layer F.SilkS) (width 0.2))
  (fp_line (start 0.254 -10.16) (end 0.254 -4.064) (layer F.SilkS) (width 0.2))
  (fp_line (start 1.27 -4.064) (end -1.27 -4.064) (layer F.SilkS) (width 0.2))
  (fp_line (start -1.27 -4.064) (end -3.81 -4.064) (layer F.SilkS) (width 0.2))
  (fp_line (start -2.286 -10.16) (end -2.286 -4.064) (layer F.SilkS) (width 0.2))
  (fp_line (start -2.794 -10.16) (end -2.286 -10.16) (layer F.SilkS) (width 0.2))
  (fp_line (start -2.794 -4.064) (end -2.794 -10.16) (layer F.SilkS) (width 0.2))
  (fp_line (start -1.27 -1.524) (end -1.27 -4.064) (layer F.SilkS) (width 0.2))
  (fp_line (start -3.81 -1.524) (end -1.27 -1.524) (layer F.SilkS) (width 0.2))
  (fp_line (start -3.81 -1.524) (end -3.81 -4.064) (layer F.SilkS) (width 0.2))
  (fp_line (start 6.35 -1.524) (end 6.35 -4.064) (layer F.SilkS) (width 0.2))
  (fp_line (start 6.35 -1.524) (end 8.89 -1.524) (layer F.SilkS) (width 0.2))
  (fp_line (start 8.89 -1.524) (end 8.89 -4.064) (layer F.SilkS) (width 0.2))
  (fp_line (start 7.366 -4.064) (end 7.366 -10.16) (layer F.SilkS) (width 0.2))
  (fp_line (start 7.366 -10.16) (end 7.874 -10.16) (layer F.SilkS) (width 0.2))
  (fp_line (start 7.874 -10.16) (end 7.874 -4.064) (layer F.SilkS) (width 0.2))
  (fp_line (start 8.89 -4.064) (end 6.35 -4.064) (layer F.SilkS) (width 0.2))
  (fp_line (start 11.43 -4.064) (end 8.89 -4.064) (layer F.SilkS) (width 0.2))
  (fp_line (start 10.414 -10.16) (end 10.414 -4.064) (layer F.SilkS) (width 0.2))
  (fp_line (start 9.906 -10.16) (end 10.414 -10.16) (layer F.SilkS) (width 0.2))
  (fp_line (start 9.906 -4.064) (end 9.906 -10.16) (layer F.SilkS) (width 0.2))
  (fp_line (start 11.43 -1.524) (end 11.43 -4.064) (layer F.SilkS) (width 0.2))
  (fp_line (start 8.89 -1.524) (end 11.43 -1.524) (layer F.SilkS) (width 0.2))
  (fp_line (start 8.89 -1.524) (end 8.89 -4.064) (layer F.SilkS) (width 0.2))
  (fp_line (start 3.81 -1.524) (end 3.81 -4.064) (layer F.SilkS) (width 0.2))
  (fp_line (start 3.81 -1.524) (end 6.35 -1.524) (layer F.SilkS) (width 0.2))
  (fp_line (start 6.35 -1.524) (end 6.35 -4.064) (layer F.SilkS) (width 0.2))
  (fp_line (start 4.826 -4.064) (end 4.826 -10.16) (layer F.SilkS) (width 0.2))
  (fp_line (start 4.826 -10.16) (end 5.334 -10.16) (layer F.SilkS) (width 0.2))
  (fp_line (start 5.334 -10.16) (end 5.334 -4.064) (layer F.SilkS) (width 0.2))
  (fp_line (start 6.35 -4.064) (end 3.81 -4.064) (layer F.SilkS) (width 0.2))
  (fp_line (start 3.81 -4.064) (end 1.27 -4.064) (layer F.SilkS) (width 0.2))
  (fp_line (start 2.794 -10.16) (end 2.794 -4.064) (layer F.SilkS) (width 0.2))
  (fp_line (start 2.286 -10.16) (end 2.794 -10.16) (layer F.SilkS) (width 0.2))
  (fp_line (start 2.286 -4.064) (end 2.286 -10.16) (layer F.SilkS) (width 0.2))
  (fp_line (start 3.81 -1.524) (end 3.81 -4.064) (layer F.SilkS) (width 0.2))
  (fp_line (start 1.27 -1.524) (end 3.81 -1.524) (layer F.SilkS) (width 0.2))
  (fp_line (start 1.27 -1.524) (end 1.27 -4.064) (layer F.SilkS) (width 0.2))
  (fp_line (start 21.59 -1.524) (end 21.59 -4.064) (layer F.SilkS) (width 0.2))
  (fp_line (start 21.59 -1.524) (end 24.13 -1.524) (layer F.SilkS) (width 0.2))
  (fp_line (start 24.13 -1.524) (end 24.13 -4.064) (layer F.SilkS) (width 0.2))
  (fp_line (start 22.606 -4.064) (end 22.606 -10.16) (layer F.SilkS) (width 0.2))
  (fp_line (start 22.606 -10.16) (end 23.114 -10.16) (layer F.SilkS) (width 0.2))
  (fp_line (start 23.114 -10.16) (end 23.114 -4.064) (layer F.SilkS) (width 0.2))
  (fp_line (start 24.13 -4.064) (end 21.59 -4.064) (layer F.SilkS) (width 0.2))
  (fp_line (start 26.67 -4.064) (end 24.13 -4.064) (layer F.SilkS) (width 0.2))
  (fp_line (start 25.654 -10.16) (end 25.654 -4.064) (layer F.SilkS) (width 0.2))
  (fp_line (start 25.146 -10.16) (end 25.654 -10.16) (layer F.SilkS) (width 0.2))
  (fp_line (start 25.146 -4.064) (end 25.146 -10.16) (layer F.SilkS) (width 0.2))
  (fp_line (start 26.67 -1.524) (end 26.67 -4.064) (layer F.SilkS) (width 0.2))
  (fp_line (start 24.13 -1.524) (end 26.67 -1.524) (layer F.SilkS) (width 0.2))
  (fp_line (start 24.13 -1.524) (end 24.13 -4.064) (layer F.SilkS) (width 0.2))
  (fp_line (start 29.21 -1.524) (end 29.21 -4.064) (layer F.SilkS) (width 0.2))
  (fp_line (start 29.21 -1.524) (end 31.75 -1.524) (layer F.SilkS) (width 0.2))
  (fp_line (start 31.75 -1.524) (end 31.75 -4.064) (layer F.SilkS) (width 0.2))
  (fp_line (start 30.226 -4.064) (end 30.226 -10.16) (layer F.SilkS) (width 0.2))
  (fp_line (start 30.226 -10.16) (end 30.734 -10.16) (layer F.SilkS) (width 0.2))
  (fp_line (start 30.734 -10.16) (end 30.734 -4.064) (layer F.SilkS) (width 0.2))
  (fp_line (start 31.75 -4.064) (end 29.21 -4.064) (layer F.SilkS) (width 0.2))
  (fp_line (start 29.21 -4.064) (end 26.67 -4.064) (layer F.SilkS) (width 0.2))
  (fp_line (start 28.194 -10.16) (end 28.194 -4.064) (layer F.SilkS) (width 0.2))
  (fp_line (start 27.686 -10.16) (end 28.194 -10.16) (layer F.SilkS) (width 0.2))
  (fp_line (start 27.686 -4.064) (end 27.686 -10.16) (layer F.SilkS) (width 0.2))
  (fp_line (start 29.21 -1.524) (end 29.21 -4.064) (layer F.SilkS) (width 0.2))
  (fp_line (start 26.67 -1.524) (end 29.21 -1.524) (layer F.SilkS) (width 0.2))
  (fp_line (start 26.67 -1.524) (end 26.67 -4.064) (layer F.SilkS) (width 0.2))
  (fp_line (start 16.51 -1.524) (end 16.51 -4.064) (layer F.SilkS) (width 0.2))
  (fp_line (start 16.51 -1.524) (end 19.05 -1.524) (layer F.SilkS) (width 0.2))
  (fp_line (start 19.05 -1.524) (end 19.05 -4.064) (layer F.SilkS) (width 0.2))
  (fp_line (start 17.526 -4.064) (end 17.526 -10.16) (layer F.SilkS) (width 0.2))
  (fp_line (start 17.526 -10.16) (end 18.034 -10.16) (layer F.SilkS) (width 0.2))
  (fp_line (start 18.034 -10.16) (end 18.034 -4.064) (layer F.SilkS) (width 0.2))
  (fp_line (start 19.05 -4.064) (end 16.51 -4.064) (layer F.SilkS) (width 0.2))
  (fp_line (start 21.59 -4.064) (end 19.05 -4.064) (layer F.SilkS) (width 0.2))
  (fp_line (start 20.574 -10.16) (end 20.574 -4.064) (layer F.SilkS) (width 0.2))
  (fp_line (start 20.066 -10.16) (end 20.574 -10.16) (layer F.SilkS) (width 0.2))
  (fp_line (start 20.066 -4.064) (end 20.066 -10.16) (layer F.SilkS) (width 0.2))
  (fp_line (start 21.59 -1.524) (end 21.59 -4.064) (layer F.SilkS) (width 0.2))
  (fp_line (start 19.05 -1.524) (end 21.59 -1.524) (layer F.SilkS) (width 0.2))
  (fp_line (start 19.05 -1.524) (end 19.05 -4.064) (layer F.SilkS) (width 0.2))
  (fp_line (start 13.97 -1.524) (end 13.97 -4.064) (layer F.SilkS) (width 0.2))
  (fp_line (start 13.97 -1.524) (end 16.51 -1.524) (layer F.SilkS) (width 0.2))
  (fp_line (start 16.51 -1.524) (end 16.51 -4.064) (layer F.SilkS) (width 0.2))
  (fp_line (start 14.986 -4.064) (end 14.986 -10.16) (layer F.SilkS) (width 0.2))
  (fp_line (start 14.986 -10.16) (end 15.494 -10.16) (layer F.SilkS) (width 0.2))
  (fp_line (start 15.494 -10.16) (end 15.494 -4.064) (layer F.SilkS) (width 0.2))
  (fp_line (start 16.51 -4.064) (end 13.97 -4.064) (layer F.SilkS) (width 0.2))
  (fp_line (start 13.97 -4.064) (end 11.43 -4.064) (layer F.SilkS) (width 0.2))
  (fp_line (start 12.954 -10.16) (end 12.954 -4.064) (layer F.SilkS) (width 0.2))
  (fp_line (start 12.446 -10.16) (end 12.954 -10.16) (layer F.SilkS) (width 0.2))
  (fp_line (start 12.446 -4.064) (end 12.446 -10.16) (layer F.SilkS) (width 0.2))
  (fp_line (start 13.97 -1.524) (end 13.97 -4.064) (layer F.SilkS) (width 0.2))
  (fp_line (start 11.43 -1.524) (end 13.97 -1.524) (layer F.SilkS) (width 0.2))
  (fp_line (start 11.43 -1.524) (end 11.43 -4.064) (layer F.SilkS) (width 0.2))
  (fp_line (start -29.21 -1.524) (end -29.21 -4.064) (layer F.SilkS) (width 0.2))
  (fp_line (start -29.21 -1.524) (end -26.67 -1.524) (layer F.SilkS) (width 0.2))
  (fp_line (start -26.67 -1.524) (end -26.67 -4.064) (layer F.SilkS) (width 0.2))
  (fp_line (start -28.194 -4.064) (end -28.194 -10.16) (layer F.SilkS) (width 0.2))
  (fp_line (start -28.194 -10.16) (end -27.686 -10.16) (layer F.SilkS) (width 0.2))
  (fp_line (start -27.686 -10.16) (end -27.686 -4.064) (layer F.SilkS) (width 0.2))
  (fp_line (start -26.67 -4.064) (end -29.21 -4.064) (layer F.SilkS) (width 0.2))
  (fp_line (start -24.13 -4.064) (end -26.67 -4.064) (layer F.SilkS) (width 0.2))
  (fp_line (start -25.146 -10.16) (end -25.146 -4.064) (layer F.SilkS) (width 0.2))
  (fp_line (start -25.654 -10.16) (end -25.146 -10.16) (layer F.SilkS) (width 0.2))
  (fp_line (start -25.654 -4.064) (end -25.654 -10.16) (layer F.SilkS) (width 0.2))
  (fp_line (start -24.13 -1.524) (end -24.13 -4.064) (layer F.SilkS) (width 0.2))
  (fp_line (start -26.67 -1.524) (end -24.13 -1.524) (layer F.SilkS) (width 0.2))
  (fp_line (start -26.67 -1.524) (end -26.67 -4.064) (layer F.SilkS) (width 0.2))
  (fp_line (start -21.59 -1.524) (end -21.59 -4.064) (layer F.SilkS) (width 0.2))
  (fp_line (start -21.59 -1.524) (end -19.05 -1.524) (layer F.SilkS) (width 0.2))
  (fp_line (start -19.05 -1.524) (end -19.05 -4.064) (layer F.SilkS) (width 0.2))
  (fp_line (start -20.574 -4.064) (end -20.574 -10.16) (layer F.SilkS) (width 0.2))
  (fp_line (start -20.574 -10.16) (end -20.066 -10.16) (layer F.SilkS) (width 0.2))
  (fp_line (start -20.066 -10.16) (end -20.066 -4.064) (layer F.SilkS) (width 0.2))
  (fp_line (start -19.05 -4.064) (end -21.59 -4.064) (layer F.SilkS) (width 0.2))
  (fp_line (start -21.59 -4.064) (end -24.13 -4.064) (layer F.SilkS) (width 0.2))
  (fp_line (start -22.606 -10.16) (end -22.606 -4.064) (layer F.SilkS) (width 0.2))
  (fp_line (start -23.114 -10.16) (end -22.606 -10.16) (layer F.SilkS) (width 0.2))
  (fp_line (start -23.114 -4.064) (end -23.114 -10.16) (layer F.SilkS) (width 0.2))
  (fp_line (start -21.59 -1.524) (end -21.59 -4.064) (layer F.SilkS) (width 0.2))
  (fp_line (start -24.13 -1.524) (end -21.59 -1.524) (layer F.SilkS) (width 0.2))
  (fp_line (start -24.13 -1.524) (end -24.13 -4.064) (layer F.SilkS) (width 0.2))
  (fp_line (start -13.97 -1.524) (end -13.97 -4.064) (layer F.SilkS) (width 0.2))
  (fp_line (start -13.97 -1.524) (end -11.43 -1.524) (layer F.SilkS) (width 0.2))
  (fp_line (start -11.43 -1.524) (end -11.43 -4.064) (layer F.SilkS) (width 0.2))
  (fp_line (start -12.954 -4.064) (end -12.954 -10.16) (layer F.SilkS) (width 0.2))
  (fp_line (start -12.954 -10.16) (end -12.446 -10.16) (layer F.SilkS) (width 0.2))
  (fp_line (start -12.446 -10.16) (end -12.446 -4.064) (layer F.SilkS) (width 0.2))
  (fp_line (start -11.43 -4.064) (end -13.97 -4.064) (layer F.SilkS) (width 0.2))
  (fp_line (start -8.89 -4.064) (end -11.43 -4.064) (layer F.SilkS) (width 0.2))
  (fp_line (start -9.906 -10.16) (end -9.906 -4.064) (layer F.SilkS) (width 0.2))
  (fp_line (start -10.414 -10.16) (end -9.906 -10.16) (layer F.SilkS) (width 0.2))
  (fp_line (start -10.414 -4.064) (end -10.414 -10.16) (layer F.SilkS) (width 0.2))
  (fp_line (start -8.89 -1.524) (end -8.89 -4.064) (layer F.SilkS) (width 0.2))
  (fp_line (start -11.43 -1.524) (end -8.89 -1.524) (layer F.SilkS) (width 0.2))
  (fp_line (start -11.43 -1.524) (end -11.43 -4.064) (layer F.SilkS) (width 0.2))
  (fp_line (start -16.51 -1.524) (end -16.51 -4.064) (layer F.SilkS) (width 0.2))
  (fp_line (start -16.51 -1.524) (end -13.97 -1.524) (layer F.SilkS) (width 0.2))
  (fp_line (start -13.97 -1.524) (end -13.97 -4.064) (layer F.SilkS) (width 0.2))
  (fp_line (start -15.494 -4.064) (end -15.494 -10.16) (layer F.SilkS) (width 0.2))
  (fp_line (start -15.494 -10.16) (end -14.986 -10.16) (layer F.SilkS) (width 0.2))
  (fp_line (start -14.986 -10.16) (end -14.986 -4.064) (layer F.SilkS) (width 0.2))
  (fp_line (start -13.97 -4.064) (end -16.51 -4.064) (layer F.SilkS) (width 0.2))
  (fp_line (start -16.51 -4.064) (end -19.05 -4.064) (layer F.SilkS) (width 0.2))
  (fp_line (start -17.526 -10.16) (end -17.526 -4.064) (layer F.SilkS) (width 0.2))
  (fp_line (start -18.034 -10.16) (end -17.526 -10.16) (layer F.SilkS) (width 0.2))
  (fp_line (start -18.034 -4.064) (end -18.034 -10.16) (layer F.SilkS) (width 0.2))
  (fp_line (start -16.51 -1.524) (end -16.51 -4.064) (layer F.SilkS) (width 0.2))
  (fp_line (start -19.05 -1.524) (end -16.51 -1.524) (layer F.SilkS) (width 0.2))
  (fp_line (start -19.05 -1.524) (end -19.05 -4.064) (layer F.SilkS) (width 0.2))
  (fp_line (start -39.37 -1.524) (end -39.37 -4.064) (layer F.SilkS) (width 0.2))
  (fp_line (start -39.37 -1.524) (end -36.83 -1.524) (layer F.SilkS) (width 0.2))
  (fp_line (start -36.83 -1.524) (end -36.83 -4.064) (layer F.SilkS) (width 0.2))
  (fp_line (start -38.354 -4.064) (end -38.354 -10.16) (layer F.SilkS) (width 0.2))
  (fp_line (start -38.354 -10.16) (end -37.846 -10.16) (layer F.SilkS) (width 0.2))
  (fp_line (start -37.846 -10.16) (end -37.846 -4.064) (layer F.SilkS) (width 0.2))
  (fp_line (start -36.83 -4.064) (end -39.37 -4.064) (layer F.SilkS) (width 0.2))
  (fp_line (start -34.29 -4.064) (end -36.83 -4.064) (layer F.SilkS) (width 0.2))
  (fp_line (start -35.306 -10.16) (end -35.306 -4.064) (layer F.SilkS) (width 0.2))
  (fp_line (start -35.814 -10.16) (end -35.306 -10.16) (layer F.SilkS) (width 0.2))
  (fp_line (start -35.814 -4.064) (end -35.814 -10.16) (layer F.SilkS) (width 0.2))
  (fp_line (start -34.29 -1.524) (end -34.29 -4.064) (layer F.SilkS) (width 0.2))
  (fp_line (start -36.83 -1.524) (end -34.29 -1.524) (layer F.SilkS) (width 0.2))
  (fp_line (start -36.83 -1.524) (end -36.83 -4.064) (layer F.SilkS) (width 0.2))
  (fp_line (start -31.75 -1.524) (end -31.75 -4.064) (layer F.SilkS) (width 0.2))
  (fp_line (start -31.75 -1.524) (end -29.21 -1.524) (layer F.SilkS) (width 0.2))
  (fp_line (start -29.21 -1.524) (end -29.21 -4.064) (layer F.SilkS) (width 0.2))
  (fp_line (start -30.734 -4.064) (end -30.734 -10.16) (layer F.SilkS) (width 0.2))
  (fp_line (start -30.734 -10.16) (end -30.226 -10.16) (layer F.SilkS) (width 0.2))
  (fp_line (start -30.226 -10.16) (end -30.226 -4.064) (layer F.SilkS) (width 0.2))
  (fp_line (start -29.21 -4.064) (end -31.75 -4.064) (layer F.SilkS) (width 0.2))
  (fp_line (start -31.75 -4.064) (end -34.29 -4.064) (layer F.SilkS) (width 0.2))
  (fp_line (start -32.766 -10.16) (end -32.766 -4.064) (layer F.SilkS) (width 0.2))
  (fp_line (start -33.274 -10.16) (end -32.766 -10.16) (layer F.SilkS) (width 0.2))
  (fp_line (start -33.274 -4.064) (end -33.274 -10.16) (layer F.SilkS) (width 0.2))
  (fp_line (start -31.75 -1.524) (end -31.75 -4.064) (layer F.SilkS) (width 0.2))
  (fp_line (start -34.29 -1.524) (end -31.75 -1.524) (layer F.SilkS) (width 0.2))
  (fp_line (start -34.29 -1.524) (end -34.29 -4.064) (layer F.SilkS) (width 0.2))
  (fp_line (start -44.45 -1.524) (end -44.45 -4.064) (layer F.SilkS) (width 0.2))
  (fp_line (start -44.45 -1.524) (end -41.91 -1.524) (layer F.SilkS) (width 0.2))
  (fp_line (start -41.91 -1.524) (end -41.91 -4.064) (layer F.SilkS) (width 0.2))
  (fp_line (start -43.434 -4.064) (end -43.434 -10.16) (layer F.SilkS) (width 0.2))
  (fp_line (start -43.434 -10.16) (end -42.926 -10.16) (layer F.SilkS) (width 0.2))
  (fp_line (start -42.926 -10.16) (end -42.926 -4.064) (layer F.SilkS) (width 0.2))
  (fp_line (start -41.91 -4.064) (end -44.45 -4.064) (layer F.SilkS) (width 0.2))
  (fp_line (start -39.37 -4.064) (end -41.91 -4.064) (layer F.SilkS) (width 0.2))
  (fp_line (start -40.386 -10.16) (end -40.386 -4.064) (layer F.SilkS) (width 0.2))
  (fp_line (start -40.894 -10.16) (end -40.386 -10.16) (layer F.SilkS) (width 0.2))
  (fp_line (start -40.894 -4.064) (end -40.894 -10.16) (layer F.SilkS) (width 0.2))
  (fp_line (start -39.37 -1.524) (end -39.37 -4.064) (layer F.SilkS) (width 0.2))
  (fp_line (start -41.91 -1.524) (end -39.37 -1.524) (layer F.SilkS) (width 0.2))
  (fp_line (start -41.91 -1.524) (end -41.91 -4.064) (layer F.SilkS) (width 0.2))
  (fp_line (start -46.99 -1.524) (end -44.45 -1.524) (layer F.SilkS) (width 0.2))
  (fp_line (start -44.45 -1.524) (end -44.45 -4.064) (layer F.SilkS) (width 0.2))
  (fp_line (start -45.974 -4.064) (end -45.974 -10.16) (layer F.SilkS) (width 0.2))
  (fp_line (start -45.974 -10.16) (end -45.466 -10.16) (layer F.SilkS) (width 0.2))
  (fp_line (start -45.466 -10.16) (end -45.466 -4.064) (layer F.SilkS) (width 0.2))
  (fp_line (start -44.45 -4.064) (end -46.99 -4.064) (layer F.SilkS) (width 0.2))
  (fp_line (start -46.99 -1.524) (end -46.99 -4.064) (layer F.SilkS) (width 0.2))
  (pad 1 thru_hole rect (at -45.72 0) (size 1.7272 2.032) (drill 1.0) (layers *.Cu *.Mask F.SilkS))
  (pad 2 thru_hole oval (at -43.18 0) (size 1.7272 2.032) (drill 1.0) (layers *.Cu *.Mask F.SilkS))
  (pad 3 thru_hole oval (at -40.64 0) (size 1.7272 2.032) (drill 1.0) (layers *.Cu *.Mask F.SilkS))
  (pad 4 thru_hole oval (at -38.1 0) (size 1.7272 2.032) (drill 1.0) (layers *.Cu *.Mask F.SilkS))
  (pad 5 thru_hole oval (at -35.56 0) (size 1.7272 2.032) (drill 1.0) (layers *.Cu *.Mask F.SilkS))
  (pad 6 thru_hole oval (at -33.02 0) (size 1.7272 2.032) (drill 1.0) (layers *.Cu *.Mask F.SilkS))
  (pad 7 thru_hole oval (at -30.48 0) (size 1.7272 2.032) (drill 1.0) (layers *.Cu *.Mask F.SilkS))
  (pad 8 thru_hole oval (at -27.94 0) (size 1.7272 2.032) (drill 1.0) (layers *.Cu *.Mask F.SilkS))
  (pad 9 thru_hole oval (at -25.4 0) (size 1.7272 2.032) (drill 1.0) (layers *.Cu *.Mask F.SilkS))
  (pad 10 thru_hole oval (at -22.86 0) (size 1.7272 2.032) (drill 1.0) (layers *.Cu *.Mask F.SilkS))
  (pad 11 thru_hole oval (at -20.32 0) (size 1.7272 2.032) (drill 1.0) (layers *.Cu *.Mask F.SilkS))
  (pad 12 thru_hole oval (at -17.78 0) (size 1.7272 2.032) (drill 1.0) (layers *.Cu *.Mask F.SilkS))
  (pad 13 thru_hole oval (at -15.24 0) (size 1.7272 2.032) (drill 1.0) (layers *.Cu *.Mask F.SilkS))
  (pad 14 thru_hole oval (at -12.7 0) (size 1.7272 2.032) (drill 1.0) (layers *.Cu *.Mask F.SilkS))
  (pad 15 thru_hole oval (at -10.16 0) (size 1.7272 2.032) (drill 1.0) (layers *.Cu *.Mask F.SilkS))
  (pad 16 thru_hole oval (at -7.62 0) (size 1.7272 2.032) (drill 1.0) (layers *.Cu *.Mask F.SilkS))
  (pad 17 thru_hole oval (at -5.08 0) (size 1.7272 2.032) (drill 1.0) (layers *.Cu *.Mask F.SilkS))
  (pad 18 thru_hole oval (at -2.54 0) (size 1.7272 2.032) (drill 1.0) (layers *.Cu *.Mask F.SilkS))
  (pad 19 thru_hole oval (at 0 0) (size 1.7272 2.032) (drill 1.0) (layers *.Cu *.Mask F.SilkS))
  (pad 20 thru_hole oval (at 2.54 0) (size 1.7272 2.032) (drill 1.0) (layers *.Cu *.Mask F.SilkS))
  (pad 21 thru_hole oval (at 5.08 0) (size 1.7272 2.032) (drill 1.0) (layers *.Cu *.Mask F.SilkS))
  (pad 22 thru_hole oval (at 7.62 0) (size 1.7272 2.032) (drill 1.0) (layers *.Cu *.Mask F.SilkS))
  (pad 23 thru_hole oval (at 10.16 0) (size 1.7272 2.032) (drill 1.0) (layers *.Cu *.Mask F.SilkS))
  (pad 24 thru_hole oval (at 12.7 0) (size 1.7272 2.032) (drill 1.0) (layers *.Cu *.Mask F.SilkS))
  (pad 25 thru_hole oval (at 15.24 0) (size 1.7272 2.032) (drill 1.0) (layers *.Cu *.Mask F.SilkS))
  (pad 26 thru_hole oval (at 17.78 0) (size 1.7272 2.032) (drill 1.0) (layers *.Cu *.Mask F.SilkS))
  (pad 27 thru_hole oval (at 20.32 0) (size 1.7272 2.032) (drill 1.0) (layers *.Cu *.Mask F.SilkS))
  (pad 28 thru_hole oval (at 22.86 0) (size 1.7272 2.032) (drill 1.0) (layers *.Cu *.Mask F.SilkS))
  (pad 29 thru_hole oval (at 25.4 0) (size 1.7272 2.032) (drill 1.0) (layers *.Cu *.Mask F.SilkS))
  (pad 30 thru_hole oval (at 27.94 0) (size 1.7272 2.032) (drill 1.0) (layers *.Cu *.Mask F.SilkS))
  (pad 31 thru_hole oval (at 30.48 0) (size 1.7272 2.032) (drill 1.0) (layers *.Cu *.Mask F.SilkS))
  (pad 32 thru_hole oval (at 33.02 0) (size 1.7272 2.032) (drill 1.0) (layers *.Cu *.Mask F.SilkS))
  (pad 33 thru_hole oval (at 35.56 0) (size 1.7272 2.032) (drill 1.0) (layers *.Cu *.Mask F.SilkS))
  (pad 34 thru_hole oval (at 38.1 0) (size 1.7272 2.032) (drill 1.0) (layers *.Cu *.Mask F.SilkS))
  (pad 35 thru_hole oval (at 40.64 0) (size 1.7272 2.032) (drill 1.0) (layers *.Cu *.Mask F.SilkS))
  (pad 36 thru_hole oval (at 43.18 0) (size 1.7272 2.032) (drill 1.0) (layers *.Cu *.Mask F.SilkS))
  (pad 37 thru_hole oval (at 45.72 0) (size 1.7272 2.032) (drill 1.0) (layers *.Cu *.Mask F.SilkS))
  (model Pin_Headers/Pin_Header_Angled_1x37.wrl
    (at (xyz 0 0 0))
    (scale (xyz 1 1 1))
    (rotate (xyz 0 0 0))
  )
)
