(module BS_HEADER_S_1X38 (layer F.Cu)
  (descr "1 pin")
  (tags "CONN DEV")
  (fp_text reference BS_HEADER_S_1X38 (at 0 -2.286) (layer F.SilkS)
    (effects (font (size 1.0 1.0) (thickness 0.1778)))
  )
  (fp_text value Val** (at 0 0) (layer F.SilkS) hide
    (effects (font (size 1.0 1.0) (thickness 0.1778)))
  )
  (fp_line (start -45.72 1.27) (end 48.26 1.27) (layer F.SilkS) (width 0.2))
  (fp_line (start 48.26 1.27) (end 48.26 -1.27) (layer F.SilkS) (width 0.2))
  (fp_line (start 48.26 -1.27) (end -45.72 -1.27) (layer F.SilkS) (width 0.2))
  (fp_line (start -48.26 -1.27) (end -45.72 -1.27) (layer F.SilkS) (width 0.2))
  (fp_line (start -45.72 -1.27) (end -45.72 1.27) (layer F.SilkS) (width 0.2))
  (fp_line (start -48.26 -1.27) (end -48.26 1.27) (layer F.SilkS) (width 0.2))
  (fp_line (start -48.26 1.27) (end -45.72 1.27) (layer F.SilkS) (width 0.2))
  (pad 1 thru_hole rect (at -46.99 0) (size 1.8288 1.8288) (drill 1.0) (layers *.Cu *.Mask F.SilkS))
  (pad 2 thru_hole oval (at -44.45 0) (size 1.8288 1.8288) (drill 1.0) (layers *.Cu *.Mask F.SilkS))
  (pad 3 thru_hole oval (at -41.91 0) (size 1.8288 1.8288) (drill 1.0) (layers *.Cu *.Mask F.SilkS))
  (pad 4 thru_hole oval (at -39.37 0) (size 1.8288 1.8288) (drill 1.0) (layers *.Cu *.Mask F.SilkS))
  (pad 5 thru_hole oval (at -36.83 0) (size 1.8288 1.8288) (drill 1.0) (layers *.Cu *.Mask F.SilkS))
  (pad 6 thru_hole oval (at -34.29 0) (size 1.8288 1.8288) (drill 1.0) (layers *.Cu *.Mask F.SilkS))
  (pad 7 thru_hole oval (at -31.75 0) (size 1.8288 1.8288) (drill 1.0) (layers *.Cu *.Mask F.SilkS))
  (pad 8 thru_hole oval (at -29.21 0) (size 1.8288 1.8288) (drill 1.0) (layers *.Cu *.Mask F.SilkS))
  (pad 9 thru_hole oval (at -26.67 0) (size 1.8288 1.8288) (drill 1.0) (layers *.Cu *.Mask F.SilkS))
  (pad 10 thru_hole oval (at -24.13 0) (size 1.8288 1.8288) (drill 1.0) (layers *.Cu *.Mask F.SilkS))
  (pad 11 thru_hole oval (at -21.59 0) (size 1.8288 1.8288) (drill 1.0) (layers *.Cu *.Mask F.SilkS))
  (pad 12 thru_hole oval (at -19.05 0) (size 1.8288 1.8288) (drill 1.0) (layers *.Cu *.Mask F.SilkS))
  (pad 13 thru_hole oval (at -16.51 0) (size 1.8288 1.8288) (drill 1.0) (layers *.Cu *.Mask F.SilkS))
  (pad 14 thru_hole oval (at -13.97 0) (size 1.8288 1.8288) (drill 1.0) (layers *.Cu *.Mask F.SilkS))
  (pad 15 thru_hole oval (at -11.43 0) (size 1.8288 1.8288) (drill 1.0) (layers *.Cu *.Mask F.SilkS))
  (pad 16 thru_hole oval (at -8.89 0) (size 1.8288 1.8288) (drill 1.0) (layers *.Cu *.Mask F.SilkS))
  (pad 17 thru_hole oval (at -6.35 0) (size 1.8288 1.8288) (drill 1.0) (layers *.Cu *.Mask F.SilkS))
  (pad 18 thru_hole oval (at -3.81 0) (size 1.8288 1.8288) (drill 1.0) (layers *.Cu *.Mask F.SilkS))
  (pad 19 thru_hole oval (at -1.27 0) (size 1.8288 1.8288) (drill 1.0) (layers *.Cu *.Mask F.SilkS))
  (pad 20 thru_hole oval (at 1.27 0) (size 1.8288 1.8288) (drill 1.0) (layers *.Cu *.Mask F.SilkS))
  (pad 21 thru_hole oval (at 3.81 0) (size 1.8288 1.8288) (drill 1.0) (layers *.Cu *.Mask F.SilkS))
  (pad 22 thru_hole oval (at 6.35 0) (size 1.8288 1.8288) (drill 1.0) (layers *.Cu *.Mask F.SilkS))
  (pad 23 thru_hole oval (at 8.89 0) (size 1.8288 1.8288) (drill 1.0) (layers *.Cu *.Mask F.SilkS))
  (pad 24 thru_hole oval (at 11.43 0) (size 1.8288 1.8288) (drill 1.0) (layers *.Cu *.Mask F.SilkS))
  (pad 25 thru_hole oval (at 13.97 0) (size 1.8288 1.8288) (drill 1.0) (layers *.Cu *.Mask F.SilkS))
  (pad 26 thru_hole oval (at 16.51 0) (size 1.8288 1.8288) (drill 1.0) (layers *.Cu *.Mask F.SilkS))
  (pad 27 thru_hole oval (at 19.05 0) (size 1.8288 1.8288) (drill 1.0) (layers *.Cu *.Mask F.SilkS))
  (pad 28 thru_hole oval (at 21.59 0) (size 1.8288 1.8288) (drill 1.0) (layers *.Cu *.Mask F.SilkS))
  (pad 29 thru_hole oval (at 24.13 0) (size 1.8288 1.8288) (drill 1.0) (layers *.Cu *.Mask F.SilkS))
  (pad 30 thru_hole oval (at 26.67 0) (size 1.8288 1.8288) (drill 1.0) (layers *.Cu *.Mask F.SilkS))
  (pad 31 thru_hole oval (at 29.21 0) (size 1.8288 1.8288) (drill 1.0) (layers *.Cu *.Mask F.SilkS))
  (pad 32 thru_hole oval (at 31.75 0) (size 1.8288 1.8288) (drill 1.0) (layers *.Cu *.Mask F.SilkS))
  (pad 33 thru_hole oval (at 34.29 0) (size 1.8288 1.8288) (drill 1.0) (layers *.Cu *.Mask F.SilkS))
  (pad 34 thru_hole oval (at 36.83 0) (size 1.8288 1.8288) (drill 1.0) (layers *.Cu *.Mask F.SilkS))
  (pad 35 thru_hole oval (at 39.37 0) (size 1.8288 1.8288) (drill 1.0) (layers *.Cu *.Mask F.SilkS))
  (pad 36 thru_hole oval (at 41.91 0) (size 1.8288 1.8288) (drill 1.0) (layers *.Cu *.Mask F.SilkS))
  (pad 37 thru_hole oval (at 44.45 0) (size 1.8288 1.8288) (drill 1.0) (layers *.Cu *.Mask F.SilkS))
  (pad 38 thru_hole oval (at 46.99 0) (size 1.8288 1.8288) (drill 1.0) (layers *.Cu *.Mask F.SilkS))
  (model Pin_Headers/Pin_Header_Straight_1x38.wrl
    (at (xyz 0 0 0))
    (scale (xyz 1 1 1))
    (rotate (xyz 0 0 0))
  )
)
