(module BS_HEADER_A_2X08 (layer F.Cu)
  (descr "1 pin")
  (tags "CONN DEV")
  (fp_text reference BS_HEADER_A_2X08 (at 0 3.81) (layer F.SilkS)
    (effects (font (size 1 1) (thickness 0.1778)))
  )
  (fp_text value Val** (at 0 0) (layer F.SilkS) hide
    (effects (font (size 1 1) (thickness 0.1778)))
  )
  (fp_line (start 9.144 -0.0762) (end 9.144 0.0508) (layer F.SilkS) (width 0.2))
  (fp_line (start 8.636 -0.0762) (end 8.636 0.0508) (layer F.SilkS) (width 0.2))
  (fp_line (start 3.556 -0.0762) (end 3.556 0.0508) (layer F.SilkS) (width 0.2))
  (fp_line (start 4.064 -0.0762) (end 4.064 0.0508) (layer F.SilkS) (width 0.2))
  (fp_line (start 6.096 -0.0762) (end 6.096 0.0508) (layer F.SilkS) (width 0.2))
  (fp_line (start 6.604 -0.0762) (end 6.604 0.0508) (layer F.SilkS) (width 0.2))
  (fp_line (start 1.524 -0.0762) (end 1.524 0.0508) (layer F.SilkS) (width 0.2))
  (fp_line (start 1.016 -0.0762) (end 1.016 0.0508) (layer F.SilkS) (width 0.2))
  (fp_line (start -1.016 -0.0762) (end -1.016 0.0508) (layer F.SilkS) (width 0.2))
  (fp_line (start -1.524 -0.0762) (end -1.524 0.0508) (layer F.SilkS) (width 0.2))
  (fp_line (start -9.144 -0.0762) (end -9.144 0.0508) (layer F.SilkS) (width 0.2))
  (fp_line (start -8.636 -0.0762) (end -8.636 0.0508) (layer F.SilkS) (width 0.2))
  (fp_line (start -3.556 -0.0762) (end -3.556 0.0508) (layer F.SilkS) (width 0.2))
  (fp_line (start -4.064 -0.0762) (end -4.064 0.0508) (layer F.SilkS) (width 0.2))
  (fp_line (start -6.096 -0.0762) (end -6.096 0.0508) (layer F.SilkS) (width 0.2))
  (fp_line (start -6.604 -0.0762) (end -6.604 0.0508) (layer F.SilkS) (width 0.2))
  (fp_line (start 6.096 -2.794) (end 6.096 -2.4368) (layer F.SilkS) (width 0.2))
  (fp_line (start 6.604 -2.794) (end 6.604 -2.4368) (layer F.SilkS) (width 0.2))
  (fp_line (start 8.636 -2.794) (end 8.636 -2.4368) (layer F.SilkS) (width 0.2))
  (fp_line (start 9.144 -2.794) (end 9.144 -2.4368) (layer F.SilkS) (width 0.2))
  (fp_line (start 4.064 -2.794) (end 4.064 -2.4368) (layer F.SilkS) (width 0.2))
  (fp_line (start 3.556 -2.794) (end 3.556 -2.4368) (layer F.SilkS) (width 0.2))
  (fp_line (start 1.524 -2.794) (end 1.524 -2.4368) (layer F.SilkS) (width 0.2))
  (fp_line (start 1.016 -2.794) (end 1.016 -2.4368) (layer F.SilkS) (width 0.2))
  (fp_line (start -9.144 -2.794) (end -9.144 -2.4368) (layer F.SilkS) (width 0.2))
  (fp_line (start -8.636 -2.794) (end -8.636 -2.4368) (layer F.SilkS) (width 0.2))
  (fp_line (start -6.604 -2.794) (end -6.604 -2.4368) (layer F.SilkS) (width 0.2))
  (fp_line (start -6.096 -2.794) (end -6.096 -2.4368) (layer F.SilkS) (width 0.2))
  (fp_line (start -1.016 -2.794) (end -1.016 -2.4368) (layer F.SilkS) (width 0.2))
  (fp_line (start -1.524 -2.794) (end -1.524 -2.4368) (layer F.SilkS) (width 0.2))
  (fp_line (start -3.556 -2.794) (end -3.556 -2.4368) (layer F.SilkS) (width 0.2))
  (fp_line (start -4.064 -2.794) (end -4.064 -2.4368) (layer F.SilkS) (width 0.2))
  (fp_line (start -10.16 -2.794) (end -7.62 -5.334) (layer F.SilkS) (width 0.2))
  (fp_line (start -10.16 -5.334) (end -7.62 -2.794) (layer F.SilkS) (width 0.2))
  (fp_line (start -9.017 -5.334) (end -9.017 -11.303) (layer F.SilkS) (width 0.2))
  (fp_line (start -9.017 -11.303) (end -8.763 -11.303) (layer F.SilkS) (width 0.2))
  (fp_line (start -8.763 -11.303) (end -8.763 -5.461) (layer F.SilkS) (width 0.2))
  (fp_line (start -8.763 -5.461) (end -8.89 -5.461) (layer F.SilkS) (width 0.2))
  (fp_line (start -8.89 -5.461) (end -8.89 -11.303) (layer F.SilkS) (width 0.2))
  (fp_line (start 0 -2.794) (end 0 -5.334) (layer F.SilkS) (width 0.2))
  (fp_line (start 0 -2.794) (end 2.54 -2.794) (layer F.SilkS) (width 0.2))
  (fp_line (start 2.54 -2.794) (end 2.54 -5.334) (layer F.SilkS) (width 0.2))
  (fp_line (start 1.016 -5.334) (end 1.016 -11.43) (layer F.SilkS) (width 0.2))
  (fp_line (start 1.016 -11.43) (end 1.524 -11.43) (layer F.SilkS) (width 0.2))
  (fp_line (start 1.524 -11.43) (end 1.524 -5.334) (layer F.SilkS) (width 0.2))
  (fp_line (start 2.54 -5.334) (end 0 -5.334) (layer F.SilkS) (width 0.2))
  (fp_line (start 5.08 -5.334) (end 2.54 -5.334) (layer F.SilkS) (width 0.2))
  (fp_line (start 4.064 -11.43) (end 4.064 -5.334) (layer F.SilkS) (width 0.2))
  (fp_line (start 3.556 -11.43) (end 4.064 -11.43) (layer F.SilkS) (width 0.2))
  (fp_line (start 3.556 -5.334) (end 3.556 -11.43) (layer F.SilkS) (width 0.2))
  (fp_line (start 5.08 -2.794) (end 5.08 -5.334) (layer F.SilkS) (width 0.2))
  (fp_line (start 2.54 -2.794) (end 5.08 -2.794) (layer F.SilkS) (width 0.2))
  (fp_line (start 2.54 -2.794) (end 2.54 -5.334) (layer F.SilkS) (width 0.2))
  (fp_line (start 7.62 -2.794) (end 7.62 -5.334) (layer F.SilkS) (width 0.2))
  (fp_line (start 7.62 -2.794) (end 10.16 -2.794) (layer F.SilkS) (width 0.2))
  (fp_line (start 10.16 -2.794) (end 10.16 -5.334) (layer F.SilkS) (width 0.2))
  (fp_line (start 8.636 -5.334) (end 8.636 -11.43) (layer F.SilkS) (width 0.2))
  (fp_line (start 8.636 -11.43) (end 9.144 -11.43) (layer F.SilkS) (width 0.2))
  (fp_line (start 9.144 -11.43) (end 9.144 -5.334) (layer F.SilkS) (width 0.2))
  (fp_line (start 10.16 -5.334) (end 7.62 -5.334) (layer F.SilkS) (width 0.2))
  (fp_line (start 7.62 -5.334) (end 5.08 -5.334) (layer F.SilkS) (width 0.2))
  (fp_line (start 6.604 -11.43) (end 6.604 -5.334) (layer F.SilkS) (width 0.2))
  (fp_line (start 6.096 -11.43) (end 6.604 -11.43) (layer F.SilkS) (width 0.2))
  (fp_line (start 6.096 -5.334) (end 6.096 -11.43) (layer F.SilkS) (width 0.2))
  (fp_line (start 7.62 -2.794) (end 7.62 -5.334) (layer F.SilkS) (width 0.2))
  (fp_line (start 5.08 -2.794) (end 7.62 -2.794) (layer F.SilkS) (width 0.2))
  (fp_line (start 5.08 -2.794) (end 5.08 -5.334) (layer F.SilkS) (width 0.2))
  (fp_line (start -5.08 -2.794) (end -5.08 -5.334) (layer F.SilkS) (width 0.2))
  (fp_line (start -5.08 -2.794) (end -2.54 -2.794) (layer F.SilkS) (width 0.2))
  (fp_line (start -2.54 -2.794) (end -2.54 -5.334) (layer F.SilkS) (width 0.2))
  (fp_line (start -4.064 -5.334) (end -4.064 -11.43) (layer F.SilkS) (width 0.2))
  (fp_line (start -4.064 -11.43) (end -3.556 -11.43) (layer F.SilkS) (width 0.2))
  (fp_line (start -3.556 -11.43) (end -3.556 -5.334) (layer F.SilkS) (width 0.2))
  (fp_line (start -2.54 -5.334) (end -5.08 -5.334) (layer F.SilkS) (width 0.2))
  (fp_line (start 0 -5.334) (end -2.54 -5.334) (layer F.SilkS) (width 0.2))
  (fp_line (start -1.016 -11.43) (end -1.016 -5.334) (layer F.SilkS) (width 0.2))
  (fp_line (start -1.524 -11.43) (end -1.016 -11.43) (layer F.SilkS) (width 0.2))
  (fp_line (start -1.524 -5.334) (end -1.524 -11.43) (layer F.SilkS) (width 0.2))
  (fp_line (start 0 -2.794) (end 0 -5.334) (layer F.SilkS) (width 0.2))
  (fp_line (start -2.54 -2.794) (end 0 -2.794) (layer F.SilkS) (width 0.2))
  (fp_line (start -2.54 -2.794) (end -2.54 -5.334) (layer F.SilkS) (width 0.2))
  (fp_line (start -7.62 -2.794) (end -7.62 -5.334) (layer F.SilkS) (width 0.2))
  (fp_line (start -7.62 -2.794) (end -5.08 -2.794) (layer F.SilkS) (width 0.2))
  (fp_line (start -5.08 -2.794) (end -5.08 -5.334) (layer F.SilkS) (width 0.2))
  (fp_line (start -6.604 -5.334) (end -6.604 -11.43) (layer F.SilkS) (width 0.2))
  (fp_line (start -6.604 -11.43) (end -6.096 -11.43) (layer F.SilkS) (width 0.2))
  (fp_line (start -6.096 -11.43) (end -6.096 -5.334) (layer F.SilkS) (width 0.2))
  (fp_line (start -5.08 -5.334) (end -7.62 -5.334) (layer F.SilkS) (width 0.2))
  (fp_line (start -7.62 -5.334) (end -10.16 -5.334) (layer F.SilkS) (width 0.2))
  (fp_line (start -8.636 -11.43) (end -8.636 -5.334) (layer F.SilkS) (width 0.2))
  (fp_line (start -9.144 -11.43) (end -8.636 -11.43) (layer F.SilkS) (width 0.2))
  (fp_line (start -9.144 -5.334) (end -9.144 -11.43) (layer F.SilkS) (width 0.2))
  (fp_line (start -7.62 -2.794) (end -7.62 -5.334) (layer F.SilkS) (width 0.2))
  (fp_line (start -10.16 -2.794) (end -7.62 -2.794) (layer F.SilkS) (width 0.2))
  (fp_line (start -10.16 -2.794) (end -10.16 -5.334) (layer F.SilkS) (width 0.2))
  (pad 1 thru_hole rect (at -8.89 1.27) (size 1.7272 1.7272) (drill 1.0) (layers *.Cu *.Mask F.SilkS))
  (pad 3 thru_hole oval (at -6.35 1.27) (size 1.7272 1.7272) (drill 1.0) (layers *.Cu *.Mask F.SilkS))
  (pad 5 thru_hole oval (at -3.81 1.27) (size 1.7272 1.7272) (drill 1.0) (layers *.Cu *.Mask F.SilkS))
  (pad 7 thru_hole oval (at -1.27 1.27) (size 1.7272 1.7272) (drill 1.0) (layers *.Cu *.Mask F.SilkS))
  (pad 9 thru_hole oval (at 1.27 1.27) (size 1.7272 1.7272) (drill 1.0) (layers *.Cu *.Mask F.SilkS))
  (pad 11 thru_hole oval (at 3.81 1.27) (size 1.7272 1.7272) (drill 1.0) (layers *.Cu *.Mask F.SilkS))
  (pad 13 thru_hole oval (at 6.35 1.27) (size 1.7272 1.7272) (drill 1.0) (layers *.Cu *.Mask F.SilkS))
  (pad 15 thru_hole oval (at 8.89 1.27) (size 1.7272 1.7272) (drill 1.0) (layers *.Cu *.Mask F.SilkS))
  (pad 16 thru_hole oval (at 8.89 -1.27) (size 1.7272 1.7272) (drill 1.0) (layers *.Cu *.Mask F.SilkS))
  (pad 14 thru_hole oval (at 6.35 -1.27) (size 1.7272 1.7272) (drill 1.0) (layers *.Cu *.Mask F.SilkS))
  (pad 12 thru_hole oval (at 3.81 -1.27) (size 1.7272 1.7272) (drill 1.0) (layers *.Cu *.Mask F.SilkS))
  (pad 10 thru_hole oval (at 1.27 -1.27) (size 1.7272 1.7272) (drill 1.0) (layers *.Cu *.Mask F.SilkS))
  (pad 8 thru_hole oval (at -1.27 -1.27) (size 1.7272 1.7272) (drill 1.0) (layers *.Cu *.Mask F.SilkS))
  (pad 6 thru_hole oval (at -3.81 -1.27) (size 1.7272 1.7272) (drill 1.0) (layers *.Cu *.Mask F.SilkS))
  (pad 4 thru_hole oval (at -6.35 -1.27) (size 1.7272 1.7272) (drill 1.0) (layers *.Cu *.Mask F.SilkS))
  (pad 2 thru_hole oval (at -8.89 -1.27) (size 1.7272 1.7272) (drill 1.0) (layers *.Cu *.Mask F.SilkS))
  (model Pin_Headers/Pin_Header_Angled_2x08.wrl
    (at (xyz 0 0 0))
    (scale (xyz 1 1 1))
    (rotate (xyz 0 0 0))
  )
)
