EESchema Schematic File Version 2
LIBS:flipdrive-cache
LIBS:nmosfet
LIBS:vagrearg_logo
LIBS:double_diode_ca
LIBS:double_diode_cc
LIBS:dmg6602
LIBS:flipdot_sr
LIBS:ncp1406
LIBS:pic16f1508
LIBS:power
LIBS:device
LIBS:transistors
LIBS:conn
LIBS:linear
LIBS:regul
LIBS:74xx
LIBS:cmos4000
LIBS:adc-dac
LIBS:memory
LIBS:xilinx
LIBS:special
LIBS:microcontrollers
LIBS:dsp
LIBS:microchip
LIBS:analog_switches
LIBS:motorola
LIBS:texas
LIBS:intel
LIBS:audio
LIBS:interface
LIBS:digital-audio
LIBS:philips
LIBS:display
LIBS:cypress
LIBS:siliconi
LIBS:opto
LIBS:atmel
LIBS:contrib
LIBS:valves
LIBS:flipdrive-cache
EELAYER 24 0
EELAYER END
$Descr A4 11693 8268
encoding utf-8
Sheet 1 1
Title ""
Date ""
Rev ""
Comp ""
Comment1 ""
Comment2 ""
Comment3 ""
Comment4 ""
$EndDescr
$Comp
L NCP1406 U1
U 1 1 55158073
P 2850 1450
F 0 "U1" H 2750 1700 60  0000 C CNN
F 1 "NCP1406" H 2900 1100 60  0000 C CNN
F 2 "" H 2850 1450 60  0000 C CNN
F 3 "" H 2850 1450 60  0000 C CNN
	1    2850 1450
	1    0    0    -1  
$EndComp
$Comp
L INDUCTOR L1
U 1 1 55158088
P 2900 1050
F 0 "L1" V 3000 900 40  0000 C CNN
F 1 "15u" V 3000 1150 40  0000 C CNN
F 2 "" H 2900 1050 60  0000 C CNN
F 3 "" H 2900 1050 60  0000 C CNN
	1    2900 1050
	0    -1   -1   0   
$EndComp
$Comp
L R R3
U 1 1 5515809C
P 2200 1800
F 0 "R3" V 2280 1800 40  0000 C CNN
F 1 "22k" V 2207 1801 40  0000 C CNN
F 2 "" V 2130 1800 30  0000 C CNN
F 3 "" H 2200 1800 30  0000 C CNN
	1    2200 1800
	1    0    0    -1  
$EndComp
$Comp
L DIODESCH D1
U 1 1 551580B0
P 3700 1050
F 0 "D1" H 3700 1150 40  0000 C CNN
F 1 "MBR0530" H 3700 950 40  0000 C CNN
F 2 "" H 3700 1050 60  0000 C CNN
F 3 "" H 3700 1050 60  0000 C CNN
	1    3700 1050
	1    0    0    -1  
$EndComp
$Comp
L C C3
U 1 1 551580C4
P 1850 1600
F 0 "C3" V 1900 1650 40  0000 L CNN
F 1 "100n" V 1900 1400 40  0000 L CNN
F 2 "" H 1888 1450 30  0000 C CNN
F 3 "" H 1850 1600 60  0000 C CNN
	1    1850 1600
	1    0    0    -1  
$EndComp
$Comp
L CP1 C6
U 1 1 551580DD
P 4550 1350
F 0 "C6" V 4600 1450 50  0000 L CNN
F 1 "100u/25" V 4600 950 50  0000 L CNN
F 2 "" H 4550 1350 60  0000 C CNN
F 3 "" H 4550 1350 60  0000 C CNN
	1    4550 1350
	1    0    0    -1  
$EndComp
$Comp
L GND #PWR01
U 1 1 5515812A
P 2400 2100
F 0 "#PWR01" H 2400 2100 30  0001 C CNN
F 1 "GND" H 2400 2030 30  0001 C CNN
F 2 "" H 2400 2100 60  0000 C CNN
F 3 "" H 2400 2100 60  0000 C CNN
	1    2400 2100
	1    0    0    -1  
$EndComp
$Comp
L C C2
U 1 1 551581A3
P 1600 1600
F 0 "C2" V 1650 1650 40  0000 L CNN
F 1 "4u7/16" V 1650 1300 40  0000 L CNN
F 2 "" H 1638 1450 30  0000 C CNN
F 3 "" H 1600 1600 60  0000 C CNN
	1    1600 1600
	1    0    0    -1  
$EndComp
$Comp
L C C1
U 1 1 551581AE
P 1350 1600
F 0 "C1" V 1400 1650 40  0000 L CNN
F 1 "4u7/16" V 1400 1300 40  0000 L CNN
F 2 "" H 1388 1450 30  0000 C CNN
F 3 "" H 1350 1600 60  0000 C CNN
	1    1350 1600
	1    0    0    -1  
$EndComp
Text GLabel 2100 1150 0    60   Input ~ 0
PWR
$Comp
L R R4
U 1 1 551583BB
P 4550 2100
F 0 "R4" V 4630 2100 40  0000 C CNN
F 1 "56R" V 4557 2101 40  0000 C CNN
F 2 "" V 4480 2100 30  0000 C CNN
F 3 "" H 4550 2100 30  0000 C CNN
	1    4550 2100
	1    0    0    -1  
$EndComp
$Comp
L C C4
U 1 1 551583C6
P 3950 1350
F 0 "C4" V 4000 1400 40  0000 L CNN
F 1 "4u7/16" V 4000 1050 40  0000 L CNN
F 2 "" H 3988 1200 30  0000 C CNN
F 3 "" H 3950 1350 60  0000 C CNN
	1    3950 1350
	1    0    0    -1  
$EndComp
$Comp
L GND #PWR02
U 1 1 551583D1
P 3950 1700
F 0 "#PWR02" H 3950 1700 30  0001 C CNN
F 1 "GND" H 3950 1630 30  0001 C CNN
F 2 "" H 3950 1700 60  0000 C CNN
F 3 "" H 3950 1700 60  0000 C CNN
	1    3950 1700
	1    0    0    -1  
$EndComp
$Comp
L CP1 C7
U 1 1 55158454
P 4800 1350
F 0 "C7" V 4850 1450 50  0000 L CNN
F 1 "100u/25" V 4850 950 50  0000 L CNN
F 2 "" H 4800 1350 60  0000 C CNN
F 3 "" H 4800 1350 60  0000 C CNN
	1    4800 1350
	1    0    0    -1  
$EndComp
$Comp
L CP1 C8
U 1 1 5515845F
P 5050 1350
F 0 "C8" V 5100 1450 50  0000 L CNN
F 1 "100u/25" V 5100 950 50  0000 L CNN
F 2 "" H 5050 1350 60  0000 C CNN
F 3 "" H 5050 1350 60  0000 C CNN
	1    5050 1350
	1    0    0    -1  
$EndComp
$Comp
L CP1 C9
U 1 1 5515846A
P 5300 1350
F 0 "C9" V 5350 1450 50  0000 L CNN
F 1 "100u/25" V 5350 950 50  0000 L CNN
F 2 "" H 5300 1350 60  0000 C CNN
F 3 "" H 5300 1350 60  0000 C CNN
	1    5300 1350
	1    0    0    -1  
$EndComp
$Comp
L C C5
U 1 1 551585B5
P 4250 2050
F 0 "C5" V 4300 2100 40  0000 L CNN
F 1 "100n" V 4300 1850 40  0000 L CNN
F 2 "" H 4288 1900 30  0000 C CNN
F 3 "" H 4250 2050 60  0000 C CNN
	1    4250 2050
	1    0    0    -1  
$EndComp
$Comp
L GND #PWR03
U 1 1 5515861F
P 4550 2400
F 0 "#PWR03" H 4550 2400 30  0001 C CNN
F 1 "GND" H 4550 2330 30  0001 C CNN
F 2 "" H 4550 2400 60  0000 C CNN
F 3 "" H 4550 2400 60  0000 C CNN
	1    4550 2400
	1    0    0    -1  
$EndComp
$Comp
L VCC #PWR04
U 1 1 55158805
P 1350 1300
F 0 "#PWR04" H 1350 1400 30  0001 C CNN
F 1 "VCC" H 1350 1400 30  0000 C CNN
F 2 "" H 1350 1300 60  0000 C CNN
F 3 "" H 1350 1300 60  0000 C CNN
	1    1350 1300
	1    0    0    -1  
$EndComp
$Comp
L PIC16F1508 U2
U 1 1 55158CF3
P 8550 1850
F 0 "U2" H 9250 2600 60  0000 C CNN
F 1 "PIC16F1508" H 8100 2600 60  0000 C CNN
F 2 "" H 7800 2000 60  0000 C CNN
F 3 "" H 7800 2000 60  0000 C CNN
	1    8550 1850
	1    0    0    -1  
$EndComp
$Comp
L C C10
U 1 1 5515942F
P 7250 2450
F 0 "C10" V 7300 2500 40  0000 L CNN
F 1 "100n" V 7300 2250 40  0000 L CNN
F 2 "" H 7288 2300 30  0000 C CNN
F 3 "" H 7250 2450 60  0000 C CNN
	1    7250 2450
	1    0    0    -1  
$EndComp
$Comp
L GND #PWR05
U 1 1 5515943F
P 7250 2700
F 0 "#PWR05" H 7250 2700 30  0001 C CNN
F 1 "GND" H 7250 2630 30  0001 C CNN
F 2 "" H 7250 2700 60  0000 C CNN
F 3 "" H 7250 2700 60  0000 C CNN
	1    7250 2700
	1    0    0    -1  
$EndComp
$Comp
L GND #PWR06
U 1 1 551594FE
P 7500 2550
F 0 "#PWR06" H 7500 2550 30  0001 C CNN
F 1 "GND" H 7500 2480 30  0001 C CNN
F 2 "" H 7500 2550 60  0000 C CNN
F 3 "" H 7500 2550 60  0000 C CNN
	1    7500 2550
	1    0    0    -1  
$EndComp
$Comp
L VCC #PWR07
U 1 1 55159546
P 7250 2100
F 0 "#PWR07" H 7250 2200 30  0001 C CNN
F 1 "VCC" H 7250 2200 30  0000 C CNN
F 2 "" H 7250 2100 60  0000 C CNN
F 3 "" H 7250 2100 60  0000 C CNN
	1    7250 2100
	1    0    0    -1  
$EndComp
$Comp
L GNDPWR #PWR08
U 1 1 55159638
P 5300 1800
F 0 "#PWR08" H 5300 1850 40  0001 C CNN
F 1 "GNDPWR" H 5300 1720 40  0000 C CNN
F 2 "" H 5300 1800 60  0000 C CNN
F 3 "" H 5300 1800 60  0000 C CNN
	1    5300 1800
	1    0    0    -1  
$EndComp
$Comp
L R R1
U 1 1 5515A139
P 1550 7200
F 0 "R1" V 1630 7200 40  0000 C CNN
F 1 "22k" V 1557 7201 40  0000 C CNN
F 2 "" V 1480 7200 30  0000 C CNN
F 3 "" H 1550 7200 30  0000 C CNN
	1    1550 7200
	1    0    0    -1  
$EndComp
$Comp
L R R2
U 1 1 5515A8B8
P 3000 7200
F 0 "R2" V 3080 7200 40  0000 C CNN
F 1 "22k" V 3007 7201 40  0000 C CNN
F 2 "" V 2930 7200 30  0000 C CNN
F 3 "" H 3000 7200 30  0000 C CNN
	1    3000 7200
	1    0    0    -1  
$EndComp
$Comp
L GNDPWR #PWR09
U 1 1 5515A8D9
P 1900 7050
F 0 "#PWR09" H 1900 7100 40  0001 C CNN
F 1 "GNDPWR" H 1900 6970 40  0000 C CNN
F 2 "" H 1900 7050 60  0000 C CNN
F 3 "" H 1900 7050 60  0000 C CNN
	1    1900 7050
	1    0    0    -1  
$EndComp
$Comp
L GNDPWR #PWR010
U 1 1 5515A8E4
P 1550 7500
F 0 "#PWR010" H 1550 7550 40  0001 C CNN
F 1 "GNDPWR" H 1550 7420 40  0000 C CNN
F 2 "" H 1550 7500 60  0000 C CNN
F 3 "" H 1550 7500 60  0000 C CNN
	1    1550 7500
	1    0    0    -1  
$EndComp
$Comp
L HT #PWR011
U 1 1 5515AA07
P 6000 1000
F 0 "#PWR011" H 6000 1120 20  0001 C CNN
F 1 "HT" H 6000 1090 30  0000 C CNN
F 2 "" H 6000 1000 60  0000 C CNN
F 3 "" H 6000 1000 60  0000 C CNN
	1    6000 1000
	1    0    0    -1  
$EndComp
$Comp
L R R5
U 1 1 5515D801
P 7000 1200
F 0 "R5" V 7080 1200 40  0000 C CNN
F 1 "22k" V 7007 1201 40  0000 C CNN
F 2 "" V 6930 1200 30  0000 C CNN
F 3 "" H 7000 1200 30  0000 C CNN
	1    7000 1200
	1    0    0    -1  
$EndComp
$Comp
L VCC #PWR012
U 1 1 5515D854
P 7000 900
F 0 "#PWR012" H 7000 1000 30  0001 C CNN
F 1 "VCC" H 7000 1000 30  0000 C CNN
F 2 "" H 7000 900 60  0000 C CNN
F 3 "" H 7000 900 60  0000 C CNN
	1    7000 900 
	1    0    0    -1  
$EndComp
$Comp
L FLIPDOT_SR U4
U 1 1 5517F6F7
P 4800 5900
F 0 "U4" H 4450 6200 60  0000 C CNN
F 1 "FLIPDOT_SR" H 5200 6200 60  0000 R CNN
F 2 "" H 4400 5900 60  0000 C CNN
F 3 "" H 4400 5900 60  0000 C CNN
	1    4800 5900
	1    0    0    -1  
$EndComp
Text Notes 7550 6950 0    197  ~ 0
Single Flipdot Driver
$Comp
L GNDPWR #PWR013
U 1 1 5517F805
P 3350 7050
F 0 "#PWR013" H 3350 7100 40  0001 C CNN
F 1 "GNDPWR" H 3350 6970 40  0000 C CNN
F 2 "" H 3350 7050 60  0000 C CNN
F 3 "" H 3350 7050 60  0000 C CNN
	1    3350 7050
	1    0    0    -1  
$EndComp
$Comp
L GNDPWR #PWR014
U 1 1 5517F80B
P 3000 7500
F 0 "#PWR014" H 3000 7550 40  0001 C CNN
F 1 "GNDPWR" H 3000 7420 40  0000 C CNN
F 2 "" H 3000 7500 60  0000 C CNN
F 3 "" H 3000 7500 60  0000 C CNN
	1    3000 7500
	1    0    0    -1  
$EndComp
Text GLabel 1450 6900 0    60   Input ~ 0
FDRES
Text GLabel 2900 6900 0    60   Input ~ 0
FDSET
Wire Wire Line
	3000 7500 3000 7450
Wire Wire Line
	7000 950  7000 900 
Wire Wire Line
	7000 1550 7000 1450
Wire Wire Line
	6950 1550 7500 1550
Connection ~ 5300 1050
Wire Wire Line
	1900 7050 1900 7000
Connection ~ 5300 1750
Connection ~ 7250 2150
Wire Wire Line
	7500 2550 7500 2450
Wire Wire Line
	7250 2700 7250 2650
Wire Wire Line
	7250 2100 7250 2250
Wire Wire Line
	7500 2150 7250 2150
Connection ~ 1350 1350
Connection ~ 4250 1800
Wire Wire Line
	4250 1850 4250 1800
Connection ~ 4550 1800
Wire Wire Line
	3450 1500 3400 1500
Wire Wire Line
	3450 1800 3450 1500
Wire Wire Line
	4550 1800 3450 1800
Wire Wire Line
	4250 2250 4250 2400
Wire Wire Line
	4550 2350 4550 2400
Connection ~ 4550 1050
Wire Wire Line
	4550 1050 4550 1150
Connection ~ 4800 1050
Wire Wire Line
	4800 1050 4800 1150
Connection ~ 5050 1050
Wire Wire Line
	5050 1050 5050 1150
Connection ~ 3950 1050
Wire Wire Line
	5300 1050 5300 1150
Connection ~ 5050 1750
Wire Wire Line
	5300 1550 5300 1800
Connection ~ 4800 1750
Wire Wire Line
	5050 1750 5050 1550
Connection ~ 4550 1750
Wire Wire Line
	4800 1750 4800 1550
Wire Wire Line
	4550 1750 5300 1750
Wire Wire Line
	4550 1550 4550 1850
Wire Wire Line
	3950 1050 3950 1150
Wire Wire Line
	3900 1050 6000 1050
Wire Wire Line
	3950 1700 3950 1550
Connection ~ 2200 1500
Wire Wire Line
	2100 1150 2200 1150
Wire Wire Line
	2200 1150 2200 1550
Wire Wire Line
	2400 1500 2200 1500
Wire Wire Line
	2200 2100 2200 2050
Wire Wire Line
	2400 1650 2400 2100
Wire Wire Line
	1600 1800 1600 2100
Wire Wire Line
	1850 2100 1850 1800
Wire Wire Line
	1350 1800 1350 2100
Connection ~ 1850 1350
Wire Wire Line
	1850 1350 1850 1400
Connection ~ 1600 1350
Wire Wire Line
	1600 1350 1600 1400
Wire Wire Line
	1350 1300 1350 1400
Wire Wire Line
	1350 1350 2400 1350
Wire Wire Line
	2400 1350 2400 1050
Wire Wire Line
	2400 1050 2600 1050
Connection ~ 3450 1050
Wire Wire Line
	3200 1050 3500 1050
Wire Wire Line
	3450 1350 3450 1050
Wire Wire Line
	3400 1350 3450 1350
$Comp
L VCC #PWR015
U 1 1 5517FA87
P 9250 5400
F 0 "#PWR015" H 9250 5500 30  0001 C CNN
F 1 "VCC" H 9250 5500 30  0000 C CNN
F 2 "" H 9250 5400 60  0000 C CNN
F 3 "" H 9250 5400 60  0000 C CNN
	1    9250 5400
	1    0    0    -1  
$EndComp
Text GLabel 9750 1350 2    51   Input ~ 0
RXD
Text GLabel 9750 1550 2    51   Output ~ 0
TXD
Wire Wire Line
	9650 1350 9750 1350
Wire Wire Line
	9750 1550 9650 1550
Text GLabel 9750 1450 2    51   Input ~ 0
SCK_SCL
Wire Wire Line
	9650 1450 9750 1450
Text GLabel 9750 1250 2    51   Input ~ 0
SDI_SDA
Wire Wire Line
	9750 1250 9650 1250
Text GLabel 9750 2450 2    51   Output ~ 0
SDO
Wire Wire Line
	9750 2450 9650 2450
Text GLabel 9750 2350 2    51   Input ~ 0
nSS
Wire Wire Line
	9750 2350 9650 2350
Text Notes 10300 5400 0    60   ~ 0
~MCLR
Text Notes 10300 5500 0    60   ~ 0
Vcc
Text Notes 10300 5600 0    60   ~ 0
GND
Text Notes 10300 5700 0    60   ~ 0
PGD
Text Notes 10300 5800 0    60   ~ 0
PGC
Text Notes 10300 5900 0    60   ~ 0
(AUX)
Text GLabel 9650 5650 0    51   BiDi ~ 0
PGD
Wire Wire Line
	9750 5650 9650 5650
Text GLabel 9650 5750 0    51   Output ~ 0
PGC
Wire Wire Line
	9750 5750 9650 5750
Text GLabel 7400 1250 0    51   BiDi ~ 0
PGD
Wire Wire Line
	7500 1250 7400 1250
Text GLabel 7400 1350 0    51   Input ~ 0
PGC
Wire Wire Line
	7500 1350 7400 1350
Text GLabel 6950 1550 0    51   Input ~ 0
nMCLR
Connection ~ 7000 1550
Text GLabel 9650 5350 0    51   Output ~ 0
nMCLR
Wire Wire Line
	9650 5350 9750 5350
$Comp
L GND #PWR016
U 1 1 551802D4
P 9250 5600
F 0 "#PWR016" H 9250 5600 30  0001 C CNN
F 1 "GND" H 9250 5530 30  0001 C CNN
F 2 "" H 9250 5600 60  0000 C CNN
F 3 "" H 9250 5600 60  0000 C CNN
	1    9250 5600
	1    0    0    -1  
$EndComp
Wire Wire Line
	9750 5450 9250 5450
Wire Wire Line
	9250 5450 9250 5400
Wire Wire Line
	9750 5550 9250 5550
Wire Wire Line
	9250 5550 9250 5600
$Comp
L R R6
U 1 1 551803BB
P 6000 1350
F 0 "R6" V 6080 1350 40  0000 C CNN
F 1 "91k" V 6007 1351 40  0000 C CNN
F 2 "" V 5930 1350 30  0000 C CNN
F 3 "" H 6000 1350 30  0000 C CNN
	1    6000 1350
	1    0    0    -1  
$EndComp
$Comp
L R R7
U 1 1 551803C6
P 6000 2000
F 0 "R7" V 6080 2000 40  0000 C CNN
F 1 "22k" V 6007 2001 40  0000 C CNN
F 2 "" V 5930 2000 30  0000 C CNN
F 3 "" H 6000 2000 30  0000 C CNN
	1    6000 2000
	1    0    0    -1  
$EndComp
$Comp
L C C11
U 1 1 551803D1
P 5800 1950
F 0 "C11" V 5850 2000 40  0000 L CNN
F 1 "100n" V 5850 1750 40  0000 L CNN
F 2 "" H 5838 1800 30  0000 C CNN
F 3 "" H 5800 1950 60  0000 C CNN
	1    5800 1950
	1    0    0    -1  
$EndComp
Wire Wire Line
	6000 1600 6000 1750
Wire Wire Line
	5800 1750 5800 1700
Wire Wire Line
	5800 1700 6000 1700
Connection ~ 6000 1700
Wire Wire Line
	6000 2250 6000 2300
$Comp
L GND #PWR017
U 1 1 5518053D
P 6000 2300
F 0 "#PWR017" H 6000 2300 30  0001 C CNN
F 1 "GND" H 6000 2230 30  0001 C CNN
F 2 "" H 6000 2300 60  0000 C CNN
F 3 "" H 6000 2300 60  0000 C CNN
	1    6000 2300
	1    0    0    -1  
$EndComp
Wire Wire Line
	6000 1000 6000 1100
Connection ~ 6000 1050
Wire Wire Line
	6000 1650 7500 1650
Connection ~ 6000 1650
Text Label 6250 1650 0    60   ~ 0
FB
Text GLabel 7400 1750 0    60   Output ~ 0
PWR
Wire Wire Line
	7500 1750 7400 1750
Text GLabel 9750 1850 2    51   Output ~ 0
FDSET
Text GLabel 9750 1950 2    51   Output ~ 0
FDRES
Wire Wire Line
	9750 1750 9650 1750
Wire Wire Line
	9750 1850 9650 1850
Text GLabel 9750 1750 2    51   Output ~ 0
SUPPLY
Wire Wire Line
	9650 1950 9750 1950
Text GLabel 1300 3900 0    60   Input ~ 0
VIN
$Comp
L C C13
U 1 1 55180A59
P 1400 4150
F 0 "C13" V 1450 4200 40  0000 L CNN
F 1 "1u/25" V 1450 3900 40  0000 L CNN
F 2 "" H 1438 4000 30  0000 C CNN
F 3 "" H 1400 4150 60  0000 C CNN
	1    1400 4150
	1    0    0    -1  
$EndComp
$Comp
L C C12
U 1 1 55180A6A
P 7000 2450
F 0 "C12" V 7050 2500 40  0000 L CNN
F 1 "1u/25" V 7050 2200 40  0000 L CNN
F 2 "" H 7038 2300 30  0000 C CNN
F 3 "" H 7000 2450 60  0000 C CNN
	1    7000 2450
	1    0    0    -1  
$EndComp
Wire Wire Line
	1300 3900 1550 3900
Wire Wire Line
	1400 3950 1400 3900
Connection ~ 1400 3900
Wire Wire Line
	2450 3900 2550 3900
$Comp
L GND #PWR018
U 1 1 55180BF2
P 1400 4400
F 0 "#PWR018" H 1400 4400 30  0001 C CNN
F 1 "GND" H 1400 4330 30  0001 C CNN
F 2 "" H 1400 4400 60  0000 C CNN
F 3 "" H 1400 4400 60  0000 C CNN
	1    1400 4400
	1    0    0    -1  
$EndComp
$Comp
L GND #PWR019
U 1 1 55180BFD
P 7000 2700
F 0 "#PWR019" H 7000 2700 30  0001 C CNN
F 1 "GND" H 7000 2630 30  0001 C CNN
F 2 "" H 7000 2700 60  0000 C CNN
F 3 "" H 7000 2700 60  0000 C CNN
	1    7000 2700
	1    0    0    -1  
$EndComp
$Comp
L GND #PWR020
U 1 1 55180C08
P 2000 4450
F 0 "#PWR020" H 2000 4450 30  0001 C CNN
F 1 "GND" H 2000 4380 30  0001 C CNN
F 2 "" H 2000 4450 60  0000 C CNN
F 3 "" H 2000 4450 60  0000 C CNN
	1    2000 4450
	1    0    0    -1  
$EndComp
Wire Wire Line
	2000 4250 2000 4450
Wire Wire Line
	7000 2650 7000 2700
Wire Wire Line
	1400 4350 1400 4400
$Comp
L VCC #PWR021
U 1 1 55180D9C
P 2550 3850
F 0 "#PWR021" H 2550 3950 30  0001 C CNN
F 1 "VCC" H 2550 3950 30  0000 C CNN
F 2 "" H 2550 3850 60  0000 C CNN
F 3 "" H 2550 3850 60  0000 C CNN
	1    2550 3850
	1    0    0    -1  
$EndComp
$Comp
L DMG6602SVT Q3
U 1 1 55180E37
P 3800 3800
F 0 "Q3" H 3950 3350 60  0000 C CNN
F 1 "DMG6602SVT" H 4050 2850 60  0000 C CNN
F 2 "" H 3750 3750 60  0000 C CNN
F 3 "" H 3750 3750 60  0000 C CNN
	1    3800 3800
	1    0    0    -1  
$EndComp
$Comp
L R R8
U 1 1 55180E3D
P 2850 3550
F 0 "R8" V 2930 3550 40  0000 C CNN
F 1 "22k" V 2857 3551 40  0000 C CNN
F 2 "" V 2780 3550 30  0000 C CNN
F 3 "" H 2850 3550 30  0000 C CNN
	1    2850 3550
	1    0    0    -1  
$EndComp
$Comp
L R R9
U 1 1 55180E43
P 3100 4550
F 0 "R9" V 3180 4550 40  0000 C CNN
F 1 "22k" V 3107 4551 40  0000 C CNN
F 2 "" V 3030 4550 30  0000 C CNN
F 3 "" H 3100 4550 30  0000 C CNN
	1    3100 4550
	1    0    0    -1  
$EndComp
Text GLabel 2950 4300 0    60   Input ~ 0
SUPPLY
Wire Wire Line
	2950 4300 3500 4300
Wire Wire Line
	3800 4450 3800 4400
Wire Wire Line
	3100 4850 3100 4800
Wire Wire Line
	5550 3300 5550 1050
Wire Wire Line
	4100 3300 5550 3300
Connection ~ 5550 1050
Wire Wire Line
	1450 3900 1450 3300
Connection ~ 1450 3900
$Comp
L GND #PWR022
U 1 1 55180FE7
P 3800 4450
F 0 "#PWR022" H 3800 4450 30  0001 C CNN
F 1 "GND" H 3800 4380 30  0001 C CNN
F 2 "" H 3800 4450 60  0000 C CNN
F 3 "" H 3800 4450 60  0000 C CNN
	1    3800 4450
	1    0    0    -1  
$EndComp
$Comp
L GND #PWR023
U 1 1 55180FF2
P 3100 4850
F 0 "#PWR023" H 3100 4850 30  0001 C CNN
F 1 "GND" H 3100 4780 30  0001 C CNN
F 2 "" H 3100 4850 60  0000 C CNN
F 3 "" H 3100 4850 60  0000 C CNN
	1    3100 4850
	1    0    0    -1  
$EndComp
$Comp
L JUMPER JP1
U 1 1 551810B2
P 10250 2650
F 0 "JP1" H 10250 2800 60  0000 C CNN
F 1 "JUMPER" H 10250 2570 40  0000 C CNN
F 2 "" H 10250 2650 60  0000 C CNN
F 3 "" H 10250 2650 60  0000 C CNN
	1    10250 2650
	0    -1   -1   0   
$EndComp
$Comp
L JUMPER JP2
U 1 1 551810F1
P 10550 2650
F 0 "JP2" H 10550 2800 60  0000 C CNN
F 1 "JUMPER" H 10550 2570 40  0000 C CNN
F 2 "" H 10550 2650 60  0000 C CNN
F 3 "" H 10550 2650 60  0000 C CNN
	1    10550 2650
	0    -1   -1   0   
$EndComp
$Comp
L GND #PWR024
U 1 1 551810FC
P 10250 3000
F 0 "#PWR024" H 10250 3000 30  0001 C CNN
F 1 "GND" H 10250 2930 30  0001 C CNN
F 2 "" H 10250 3000 60  0000 C CNN
F 3 "" H 10250 3000 60  0000 C CNN
	1    10250 3000
	1    0    0    -1  
$EndComp
$Comp
L GND #PWR025
U 1 1 55181107
P 10550 3000
F 0 "#PWR025" H 10550 3000 30  0001 C CNN
F 1 "GND" H 10550 2930 30  0001 C CNN
F 2 "" H 10550 3000 60  0000 C CNN
F 3 "" H 10550 3000 60  0000 C CNN
	1    10550 3000
	1    0    0    -1  
$EndComp
Wire Wire Line
	10550 3000 10550 2950
Wire Wire Line
	10250 2950 10250 3000
Wire Wire Line
	9650 2250 10250 2250
Wire Wire Line
	10250 2250 10250 2350
Wire Wire Line
	9650 2150 10550 2150
Wire Wire Line
	10550 2150 10550 2350
$Comp
L CONN_10 P1
U 1 1 551817CC
P 8300 5300
F 0 "P1" V 8250 5300 60  0000 C CNN
F 1 "SIL-10" V 8350 5300 60  0000 C CNN
F 2 "" H 8300 5300 60  0000 C CNN
F 3 "" H 8300 5300 60  0000 C CNN
	1    8300 5300
	1    0    0    -1  
$EndComp
Text GLabel 7100 4850 0    51   Output ~ 0
RXD
Text GLabel 7100 4950 0    51   Input ~ 0
TXD
Text GLabel 7100 5050 0    51   Output ~ 0
SCK_SCL
Text GLabel 7100 5150 0    51   Output ~ 0
SDI_SDA
Text GLabel 7100 5250 0    51   Input ~ 0
SDO
Text GLabel 7100 5350 0    51   Output ~ 0
nSS
$Comp
L R R10
U 1 1 5518181F
P 7400 4950
F 0 "R10" V 7480 4950 40  0000 C CNN
F 1 "100R" V 7407 4951 40  0000 C CNN
F 2 "" V 7330 4950 30  0000 C CNN
F 3 "" H 7400 4950 30  0000 C CNN
	1    7400 4950
	0    1    1    0   
$EndComp
$Comp
L R R11
U 1 1 55181845
P 7400 5250
F 0 "R11" V 7480 5250 40  0000 C CNN
F 1 "100R" V 7407 5251 40  0000 C CNN
F 2 "" V 7330 5250 30  0000 C CNN
F 3 "" H 7400 5250 30  0000 C CNN
	1    7400 5250
	0    1    1    0   
$EndComp
Wire Wire Line
	7100 4850 7950 4850
Wire Wire Line
	7650 4950 7950 4950
Wire Wire Line
	7150 4950 7100 4950
Wire Wire Line
	7100 5050 7950 5050
Wire Wire Line
	7100 5150 7950 5150
Wire Wire Line
	7100 5250 7150 5250
Wire Wire Line
	7650 5250 7950 5250
Wire Wire Line
	7950 5350 7100 5350
$Comp
L GND #PWR026
U 1 1 55181D36
P 7900 5850
F 0 "#PWR026" H 7900 5850 30  0001 C CNN
F 1 "GND" H 7900 5780 30  0001 C CNN
F 2 "" H 7900 5850 60  0000 C CNN
F 3 "" H 7900 5850 60  0000 C CNN
	1    7900 5850
	1    0    0    -1  
$EndComp
Wire Wire Line
	7950 5450 7900 5450
Wire Wire Line
	7900 5450 7900 5850
Wire Wire Line
	7950 5650 7900 5650
Connection ~ 7900 5650
$Comp
L VCC #PWR027
U 1 1 55181E85
P 7750 5550
F 0 "#PWR027" H 7750 5650 30  0001 C CNN
F 1 "VCC" H 7750 5650 30  0000 C CNN
F 2 "" H 7750 5550 60  0000 C CNN
F 3 "" H 7750 5550 60  0000 C CNN
	1    7750 5550
	1    0    0    -1  
$EndComp
Text GLabel 7750 5750 0    60   Output ~ 0
VIN
Wire Wire Line
	7950 5750 7750 5750
Wire Wire Line
	7950 5550 7750 5550
Wire Notes Line
	1000 2850 1000 5050
Wire Notes Line
	1000 5050 4400 5050
Wire Notes Line
	4400 5050 4400 2850
Wire Notes Line
	4400 2850 1000 2850
Wire Notes Line
	1000 750  1000 2650
Wire Notes Line
	1000 2650 4400 2650
Wire Notes Line
	4400 2650 4400 750 
Wire Notes Line
	4400 750  1000 750 
Text Notes 1100 2600 0    60   ~ 0
Not used with Vin
Text Notes 1050 5000 0    60   ~ 0
Used with Vin
Wire Wire Line
	7250 2200 7000 2200
Wire Wire Line
	7000 2200 7000 2250
Connection ~ 7250 2200
Wire Wire Line
	2550 3900 2550 3850
Text Notes 8150 7650 0    60   ~ 0
v20150423
Text Notes 7850 7300 0    60   ~ 0
CC-BY-SA-3.0
Text Notes 10450 7300 0    98   ~ 0
Vagrearg
Text Notes 6100 1900 0    60   ~ 0
HT=24.49V+1.19V\n(25.68V) → FB=5V
$Comp
L GND #PWR028
U 1 1 5518299F
P 5800 2300
F 0 "#PWR028" H 5800 2300 30  0001 C CNN
F 1 "GND" H 5800 2230 30  0001 C CNN
F 2 "" H 5800 2300 60  0000 C CNN
F 3 "" H 5800 2300 60  0000 C CNN
	1    5800 2300
	1    0    0    -1  
$EndComp
$Comp
L GND #PWR029
U 1 1 551829AA
P 4250 2400
F 0 "#PWR029" H 4250 2400 30  0001 C CNN
F 1 "GND" H 4250 2330 30  0001 C CNN
F 2 "" H 4250 2400 60  0000 C CNN
F 3 "" H 4250 2400 60  0000 C CNN
	1    4250 2400
	1    0    0    -1  
$EndComp
$Comp
L GND #PWR030
U 1 1 551829B5
P 2200 2100
F 0 "#PWR030" H 2200 2100 30  0001 C CNN
F 1 "GND" H 2200 2030 30  0001 C CNN
F 2 "" H 2200 2100 60  0000 C CNN
F 3 "" H 2200 2100 60  0000 C CNN
	1    2200 2100
	1    0    0    -1  
$EndComp
$Comp
L GND #PWR031
U 1 1 551829C0
P 1850 2100
F 0 "#PWR031" H 1850 2100 30  0001 C CNN
F 1 "GND" H 1850 2030 30  0001 C CNN
F 2 "" H 1850 2100 60  0000 C CNN
F 3 "" H 1850 2100 60  0000 C CNN
	1    1850 2100
	1    0    0    -1  
$EndComp
$Comp
L GND #PWR032
U 1 1 551829CB
P 1600 2100
F 0 "#PWR032" H 1600 2100 30  0001 C CNN
F 1 "GND" H 1600 2030 30  0001 C CNN
F 2 "" H 1600 2100 60  0000 C CNN
F 3 "" H 1600 2100 60  0000 C CNN
	1    1600 2100
	1    0    0    -1  
$EndComp
$Comp
L GND #PWR033
U 1 1 551829D6
P 1350 2100
F 0 "#PWR033" H 1350 2100 30  0001 C CNN
F 1 "GND" H 1350 2030 30  0001 C CNN
F 2 "" H 1350 2100 60  0000 C CNN
F 3 "" H 1350 2100 60  0000 C CNN
	1    1350 2100
	1    0    0    -1  
$EndComp
Connection ~ 2850 3300
Connection ~ 3100 4300
Wire Wire Line
	5800 2150 5800 2300
$Comp
L HT #PWR034
U 1 1 551832A4
P 4150 5850
F 0 "#PWR034" H 4150 5970 20  0001 C CNN
F 1 "HT" H 4150 5940 30  0000 C CNN
F 2 "" H 4150 5850 60  0000 C CNN
F 3 "" H 4150 5850 60  0000 C CNN
	1    4150 5850
	1    0    0    -1  
$EndComp
Wire Wire Line
	1550 7450 1550 7500
Wire Wire Line
	3350 7000 3350 7050
Text GLabel 7400 1450 0    51   Input ~ 0
nSS
Wire Wire Line
	7500 1450 7400 1450
Text Notes 8600 3350 0    60   ~ 0
JP1
Text Notes 8600 3500 0    60   ~ 0
JP2
Text Notes 8900 3150 0    60   ~ 0
Open
Text Notes 9400 3150 0    60   ~ 0
Close
Text Notes 8950 3350 0    60   ~ 0
SPI
Text Notes 9450 3350 0    60   ~ 0
I2C
Text Notes 8900 3500 0    60   ~ 0
Serial
Text Notes 9350 3500 0    60   ~ 0
Flip/Dir
Wire Notes Line
	8550 3200 9750 3200
Wire Notes Line
	9300 3050 9300 3700
Wire Notes Line
	8800 3050 8800 3700
$Comp
L DIODESCH D2
U 1 1 551839F2
P 2200 3300
F 0 "D2" H 2050 3200 40  0000 C CNN
F 1 "MBR0530" H 2300 3200 40  0000 C CNN
F 2 "" H 2200 3300 60  0000 C CNN
F 3 "" H 2200 3300 60  0000 C CNN
	1    2200 3300
	1    0    0    -1  
$EndComp
Wire Wire Line
	2400 3300 3500 3300
Wire Wire Line
	1450 3300 2000 3300
Text Notes 1900 3200 0    60   ~ 0
Feedback block
$Comp
L JUMPER JP3
U 1 1 5518406F
P 10850 2650
F 0 "JP3" H 10850 2800 60  0000 C CNN
F 1 "JUMPER" H 10850 2570 40  0000 C CNN
F 2 "" H 10850 2650 60  0000 C CNN
F 3 "" H 10850 2650 60  0000 C CNN
	1    10850 2650
	0    -1   -1   0   
$EndComp
Wire Wire Line
	9650 2050 10850 2050
Wire Wire Line
	10850 2050 10850 2350
$Comp
L GND #PWR035
U 1 1 55184135
P 10850 3000
F 0 "#PWR035" H 10850 3000 30  0001 C CNN
F 1 "GND" H 10850 2930 30  0001 C CNN
F 2 "" H 10850 3000 60  0000 C CNN
F 3 "" H 10850 3000 60  0000 C CNN
	1    10850 3000
	1    0    0    -1  
$EndComp
Wire Wire Line
	10850 2950 10850 3000
Text Notes 8600 3650 0    60   ~ 0
JP3
Text Notes 8950 3650 0    60   ~ 0
Vcc
Text Notes 9450 3650 0    60   ~ 0
Vin
Text Notes 9850 3350 0    60   ~ 0
(protocol)
Text Notes 9850 3500 0    60   ~ 0
(plain I/O)
Text Notes 9850 3650 0    60   ~ 0
(PSU select)
Text Notes 4750 3950 0    60   ~ 0
Vin: 12V...24V
Text Notes 4750 4100 0    60   ~ 0
Vcc: 3V3...5V
Text Notes 4750 3800 0    60   ~ 0
Power supply option:
$Comp
L TLV70033DDC U3
U 1 1 55184FAC
P 2000 3950
F 0 "U3" H 1750 4150 40  0000 C CNN
F 1 "AP2204K-5.0" H 2100 4150 40  0000 C CNN
F 2 "" H 2000 4050 35  0000 C CIN
F 3 "" H 2000 3950 60  0000 C CNN
	1    2000 3950
	1    0    0    -1  
$EndComp
Wire Wire Line
	1550 4050 1500 4050
Wire Wire Line
	1500 4050 1500 3900
Connection ~ 1500 3900
$Comp
L CONN_5 P2
U 1 1 55186428
P 10150 5550
F 0 "P2" V 10100 5550 50  0000 C CNN
F 1 "SIL-5" V 10200 5550 50  0000 C CNN
F 2 "" H 10150 5550 60  0000 C CNN
F 3 "" H 10150 5550 60  0000 C CNN
	1    10150 5550
	1    0    0    -1  
$EndComp
Wire Notes Line
	4700 1900 4700 2300
Wire Notes Line
	4700 2300 4750 2200
Wire Notes Line
	4700 2300 4650 2200
Text Notes 4750 2150 0    60   ~ 0
Const I: 20mA\nVin: inrush limit
Text Notes 6500 5400 0    60   ~ 0
FLIP
Text Notes 6500 5200 0    60   ~ 0
DIR
Wire Wire Line
	4300 6300 4300 6050
Wire Wire Line
	4300 5500 4300 5750
$Comp
L ZENER D4
U 1 1 551961B6
P 4200 1350
F 0 "D4" H 4050 1400 50  0000 C CNN
F 1 "TZS4705" H 4000 1300 40  0000 C CNN
F 2 "" H 4200 1350 60  0000 C CNN
F 3 "" H 4200 1350 60  0000 C CNN
F 4 "18V" H 4350 1300 39  0000 C CNN "Voltage"
	1    4200 1350
	0    -1   -1   0   
$EndComp
Wire Wire Line
	4200 1150 4200 1050
Connection ~ 4200 1050
Wire Wire Line
	4200 1550 4200 1800
Connection ~ 4200 1800
Text Notes 2950 2300 0    60   ~ 0
Zener D4 is optional\n(overvoltage protection)
Text Notes 4500 950  0    60   ~ 0
3..4x100uF or 2x220uF\ndepending ESR consideration.
$Comp
L CONN_5 PA1
U 1 1 5521482D
P 8300 4450
F 0 "PA1" V 8250 4450 50  0000 C CNN
F 1 "SIL-5" V 8350 4450 50  0000 C CNN
F 2 "" H 8300 4450 60  0000 C CNN
F 3 "" H 8300 4450 60  0000 C CNN
	1    8300 4450
	1    0    0    -1  
$EndComp
Wire Wire Line
	7900 4650 7900 5250
Connection ~ 7900 5250
Wire Wire Line
	7850 5150 7850 4550
Wire Wire Line
	7850 4550 7900 4550
Connection ~ 7850 5150
Wire Wire Line
	7800 5050 7800 4450
Wire Wire Line
	7800 4450 7900 4450
Connection ~ 7800 5050
Wire Wire Line
	7750 4950 7750 4350
Wire Wire Line
	7750 4350 7900 4350
Connection ~ 7750 4950
Wire Wire Line
	7700 4850 7700 4250
Wire Wire Line
	7700 4250 7900 4250
Connection ~ 7700 4850
Text Notes 8450 4400 0    60   ~ 0
Pins for 2x5 and\n1x10 headers
$Comp
L R R12
U 1 1 552D660F
P 3450 3800
F 0 "R12" V 3530 3800 40  0000 C CNN
F 1 "22k" V 3457 3801 40  0000 C CNN
F 2 "" V 3380 3800 30  0000 C CNN
F 3 "" H 3450 3800 30  0000 C CNN
	1    3450 3800
	0    1    1    0   
$EndComp
Wire Wire Line
	2850 3800 3200 3800
Wire Wire Line
	3600 3600 3200 3600
Wire Wire Line
	3200 3600 3200 3800
Connection ~ 3200 3800
Wire Wire Line
	3800 3800 3700 3800
$Comp
L NMOSFET Q1
U 1 1 552D6E56
P 1900 6700
F 0 "Q1" H 2050 6550 60  0000 C CNN
F 1 "DMG3402L" H 2000 6700 60  0000 L CNN
F 2 "" H 1850 6950 60  0000 C CNN
F 3 "" H 1850 6950 60  0000 C CNN
	1    1900 6700
	1    0    0    -1  
$EndComp
$Comp
L NMOSFET Q2
U 1 1 552D6E74
P 3350 6700
F 0 "Q2" H 3500 6550 60  0000 C CNN
F 1 "DMG3402L" H 3450 6700 60  0000 L CNN
F 2 "" H 3300 6950 60  0000 C CNN
F 3 "" H 3300 6950 60  0000 C CNN
	1    3350 6700
	1    0    0    -1  
$EndComp
Wire Wire Line
	1450 6900 1600 6900
Wire Wire Line
	1550 6950 1550 6900
Connection ~ 1550 6900
Wire Wire Line
	2900 6900 3050 6900
Wire Wire Line
	3000 6950 3000 6900
Connection ~ 3000 6900
$Comp
L DOUBLE_DIODE_CC D3
U 1 1 552D7284
P 3900 5900
F 0 "D3" H 4000 5800 40  0000 C CNN
F 1 "BAV70" H 3900 6000 40  0000 C CNN
F 2 "" H 3900 5900 60  0000 C CNN
F 3 "" H 3900 5900 60  0000 C CNN
	1    3900 5900
	0    -1   -1   0   
$EndComp
Wire Wire Line
	3350 6300 4300 6300
Wire Wire Line
	1900 5500 4300 5500
Wire Wire Line
	4100 5900 4300 5900
Wire Wire Line
	4150 5850 4150 5900
Connection ~ 4150 5900
Wire Wire Line
	3350 6300 3350 6400
Connection ~ 3900 6300
Wire Wire Line
	1900 5500 1900 6400
Connection ~ 3900 5500
Text Notes 6100 1300 0    60   ~ 0
(150k\n →FB=3V3)
Connection ~ 3050 3800
Wire Wire Line
	3050 3800 3050 3750
Wire Wire Line
	3050 3300 3050 3350
Connection ~ 3050 3300
$Comp
L ZENER D5
U 1 1 552D65EB
P 3050 3550
F 0 "D5" H 2900 3600 50  0000 C CNN
F 1 "TZS4705" H 3000 3450 40  0000 C CNN
F 2 "" H 3050 3550 60  0000 C CNN
F 3 "" H 3050 3550 60  0000 C CNN
F 4 "18V" H 3200 3500 39  0000 C CNN "Voltage"
	1    3050 3550
	0    -1   -1   0   
$EndComp
Text Notes 2850 3200 0    60   ~ 0
D5 is optional for\ntransient protection
$EndSCHEMATC
